      *   COPYID=CLFDTMKP
       FD  TIMEKEEPER-FILE                                              CLFDTMKP
           LABEL RECORDS ARE STANDARD                                   CLFDTMKP
           RECORD CONTAINS 80 CHARACTERS                                CLFDTMKP
           DATA RECORD IS TIMEKEEPER-RECORD.                            CLFDTMKP
