000000**************************************************************/   48411571
000001*  COPYMEMBER: CPFDSPAR                                      */   48411571
000002*  RELEASE: ___1571______ SERVICE REQUEST(S): ____14841____  */   48411571
000003*  NAME:______RIDER______ CREATION DATE:      ___04/30/04__  */   48411571
000004*  DESCRIPTION:                                              */   48411571
000005*    PAR EXPANSION:                                          */   48411571
000006*    FD FOR REVISED PAR/CPA FILES                            */   48411571
000007**************************************************************/   48411571
002800     BLOCK CONTAINS 0 RECORDS                                     CPFDSPAR
002900     RECORDING MODE IS V                                          CPFDSPAR
003000     RECORD CONTAINS 33 TO 365 CHARACTERS.                        CPFDSPAR
