000100*    COPYID=CPFDXCSF                                              CPFDXCSF
000200     BLOCK CONTAINS 0 RECORDS                                     CPFDXCSF
000300*    RECORD CONTAINS 150 CHARACTERS                               36500903
000400     RECORD CONTAINS 160 CHARACTERS                               36500903
000400     LABEL RECORDS OMITTED.                                       CPFDXCSF
