000100*    COPYID=CPFDXPCF                                              CPFDXPCF
000200     BLOCK CONTAINS 0 RECORDS                                     CPFDXPCF
000300     RECORD CONTAINS 224 CHARACTERS                               CPFDXPCF
000400     LABEL RECORDS STANDARD.                                      CPFDXPCF
