000100**************************************************************/   17040930
000200*  COPYMEMBER: CPLNKRP6                                      */   17040930
000300*  RELEASE: ___0930______ SERVICE REQUEST(S): ____11704____  */   17040930
000400*  NAME:_____M. SANO_____ MODIFICATION DATE:  ___09/15/94__  */   17040930
000500*  DESCRIPTION:                                              */   17040930
000600*                                                            */   17040930
000700*                                                            */   17040930
000800**************************************************************/   17040930
000900******************************************************************36030473
001000*COPYID=CPLNKRP6                                                  CPLNKRP6
001100******************************************************************CPLNKRP6
001200*                        C P L N K H R S                         *CPLNKRP6
001300******************************************************************CPLNKRP6
001400*                                                                *CPLNKRP6
001500*01  RP6-INTERFACE.                                               CPLNKRP6
001600*                                                                 CPLNKRP6
001700******************************************************************CPLNKRP6
001800*      THE FOLLOWING FLAGS AND FIELDS ARE PASSED BY CALLER       *CPLNKRP6
001900******************************************************************CPLNKRP6
002000*                                                                 CPLNKRP6
002100     03  KRP6-CALLING-PROGRAM-ID           PIC X(08).             CPLNKRP6
002200     03  KRP6-PROGRAM-ACTION-CODE          PIC X(05).             CPLNKRP6
002300     03  KRP6-PRIOR-DATE.                                         CPLNKRP6
002400         05  KRP6-PRIOR-YY                 PIC 9(02).             CPLNKRP6
002500         05  KRP6-PRIOR-MM                 PIC 9(02).             CPLNKRP6
