001100******************************************************************36090479
001200*  COPYMEMBER: CPPDXE99                                          *36090479
001300*  RELEASE: ____0479____  SERVICE REQUEST(S): ____3609____       *36090479
001400*  NAME:_P_PARKER_______  CREATION DATE:      __06/21/90__       *36090479
001500*  DESCRIPTION:                                                  *36090479
001600*    SET UP STANDARD SQL ERROR EXIT                              *36090479
001800*                                                                *36090479
001900******************************************************************36090479
002000******************************************************************CPPDXE99
002100*                    SQL FROM PRECOMILER                         *CPPDXE99
002200******************************************************************CPPDXE99
002300*    THE FOLLOWING SQL WILL CAUSE ANY 'ABNORMAL' SQLCODE TO      *CPPDXE99
002400*    CAUSE A BRANCH TO 999999-SQL-ERROR.                         *CPPDXE99
002500******************************************************************CPPDXE99
002600     EXEC SQL                                                     CPPDXE99
002700          WHENEVER SQLERROR GO TO 999999-SQL-ERROR                CPPDXE99
002800     END-EXEC.                                                    CPPDXE99
002900******************************************************************CPPDXE99
