000100*    COPYID=CPSLXPUX                                              CPSLXPUX
000200*        PRINT FILE DDNAME FOR UI/CETA EXCEPTION REPORT           CPSLXPUX
000300         ASSIGN TO UT-S-PRINTUX.                                  CPSLXPUX
