000100*    COPYID=CPSLXPAL                                              CPSLXPAL
000200*        PRINT FILE DDNAME FOR NON-RESIDENT ALIEN REPORT          CPSLXPAL
000300         ASSIGN TO UT-S-PTALIEN.                                  CPSLXPAL
