000100**************************************************************/   45260390
000200*  COPYMEMBER: CPSLXLIF                                      */   45260390
000300*  RELEASE: ____0390____  SERVICE REQUEST(S): ____4526____   */   45260390
000400*  NAME:    ____DXJ_____  CREATION DATE:      __01/10/89__   */   45260390
000500*  DESCRIPTION:                                              */   45260390
000600*                                                            */   45260390
000700*    - NEW COPY MEMBER                                       */   45260390
000800**************************************************************/   45260390
000900*    COPYID=CPSLXLIF                                              CPSLXLIF
001000        ASSIGN TO UT-S-XLIFEXTR.                                  CPSLXLIF
