000100*    COPYID=CPSLXTOC                                              CPSLXTOC
000200*        FOR  UI AND CETA (OUTPUT) TAPE                           CPSLXTOC
000300              ASSIGN TO UT-S-TAPEUI.                              CPSLXTOC
