000100**************************************************************/   14020230
000200*  COPY MODULE:  CPSLXSPS                                    */   14020230
000300*  RELEASE # ___0230___   SERVICE REQUEST NO(S) ____1402____ */   14020230
000400*  NAME ______BVB______   MODIFICATION DATE ____08/20/86_____*/   14020230
000500*                                                            */   14020230
000600*  DESCRIPTION                                               */   14020230
000700*       ADDED FOR SUREPAY.                                   */   14020230
000800**************************************************************/   14020230
000900*    COPYID=CPSLXSPS                                              CPSLXSPS
001000         ASSIGN TO UT-S-ADVICE.                                   CPSLXSPS
