000100*    COPYID=CPSLXAFF                                              CPSLXAFF
000200         ASSIGN TO DA-I-ACCTFUND                                  CPSLXAFF
000300         RECORD KEY IS ACFF-KEY  NOMINAL KEY IS XAFI-AFR-KEY      CPSLXAFF
000400         ACCESS IS RANDOM        RESERVE NO ALTERNATE AREA.       CPSLXAFF
