000100*==========================================================%      UCSD9999
000200*= UCSD LOCAL CHANGES HAVE BEEN IMPLEMENTED.              =%      UCSD9999
000300*= COLUMN 73 THRU 80 DENOTES CHANGE NUMBER - UCSD9999     =%      UCSD9999
000400*==========================================================%      UCSD9999
000500*==========================================================%      UCSD0035
000600*=   COPY MEMBER: CPWSXINZ                                =%      UCSD0035
000700*=   CHANGE: ___0035____  SERVICE REQUEST(S): ___DT-035___=%      UCSD0035
000800*=   NAME:   JIM PIERCE   MODIFICATION DATE:  __03/14/91__=%      UCSD0035
000900*=   DESCRIPTION:                                         =%      UCSD0035
001000*=   ADDED LOCAL DATA ELEMENTS TO INT-PERTABLE-DATA:      =%      UCSD0035
001100*=     INT-LAST-UPD-OPERATOR                              =%      UCSD0035
001200*=     INT-LAST-UPD-DATE                                  =%      UCSD0035
001300*=     INT-LAST-UPD-TIME                                  =%      UCSD0035
001400*=     INT-LAST-SCRN-FUNC                                 =%      UCSD0035
001500*=     INT-VICE-CHAN-UNIT                                 =%      UCSD0035
001600*=     INT-COLLEGE-CODE                                   =%      UCSD0035
001700*=     INT-MAIL-DROP-CODE                                 =%      UCSD0035
001800*=     INT-ACAD-REVIEW-DATE ;                             =%      UCSD0035
001900*=   DELETED DATA ELEMENTS FROM INT-CMPTABLE-DATA:        =%      UCSD0035
002000*=     INT-CAMPUS-DATA3  THRU                             =%      UCSD0035
002100*=     INT-CAMPUS-DATA10 ;                                =%      UCSD0035
002200*=   ADDED LOCAL DATA ELEMENTS TO INT-CMPTABLE-DATA:      =%      UCSD0035
002300*=     INT-ACAD-DISCIPLINE                                =%      UCSD0035
002400*=     INT-ASST-RANK-DATE                                 =%      UCSD0035
002500*=     INT-ASSO-RANK-DATE                                 =%      UCSD0035
002600*=     INT-FULL-RANK-DATE                                 =%      UCSD0035
002700*=     INT-STEP-DATE                                      =%      UCSD0035
002800*=     INT-EDU-INST                                       =%      UCSD0035
002900*=     INT-EDU-LEVEL-2                                    =%      UCSD0035
003000*=     INT-EDU-LEVEL-2-YR                                 =%      UCSD0035
003100*=     INT-EDU-LEVEL-2-INST                               =%      UCSD0035
003200*=     INT-PRIOR-SERVICE-INST                             =%      UCSD0035
003300*=     INT-ACAD-SENATE-STATUS                             =%      UCSD0035
003400*==========================================================%      UCSD0035
003500*==========================================================%      UCSD0033
003600*=    COPY MEMBER: CPWSXINZ                               =%      UCSD0033
003700*=    CHANGE # DT-033       PROJ. REQUEST: IFIS CONVERSION=%      UCSD0033
003800*=    NAME: JIM PIERCE      MODIFICATION DATE: 10/04/90   =%      UCSD0033
003900*=                                                        =%      UCSD0033
004000*=    DESCRIPTION                                         =%      UCSD0033
004100*=    NEW DATA ELEMENTS HAVE BEEN ADDED TO                =%      UCSD0033
004200*=    INT-DISTABLE-DATA TO SUPPORT IFIS INTERFACE:        =%      UCSD0033
004300*=             INT-IFIS-ACCT-SUB                          =%      UCSD0033
004400*=             INT-IFIS-INDEX                             =%      UCSD0033
004500*=             INT-IFIS-FUND                              =%      UCSD0033
004600*=             INT-IFIS-ORG                               =%      UCSD0033
004700*=             INT-IFIS-PROGRAM                           =%      UCSD0033
004800*=             INT-IFIS-UC-LOC2-LOC3                      =%      UCSD0033
004900*==========================================================%      UCSD0033
000500*==========================================================%      UCSD0032
000600*=    COPY MEMBER: CPWSXINZ                               =%      UCSD0032
000700*=    CHANGE # 0032         PROJ. REQUEST: DB2 CONVERSION =%      UCSD0032
000800*=    NAME: JIM PIERCE      MODIFICATION DATE: 04/26/90   =%      UCSD0032
001000*=    DESCRIPTION                                         =%      UCSD0032
005500*=    ADDED LOCAL DATA ELEMENTS TO INT-PAYTABLE-DATA:     =%      UCSD0032
005600*=        INT-SURE-VALID                                  =%      UCSD0032
005700*=        INT-SURE-TRANSIT                                =%      UCSD0032
005800*=        INT-SURE-MAILDROP                               =%      UCSD0032
005900*=        INT-SURE-CHECK-DISP ;                           =%      UCSD0032
006000*=    ADDED LOCAL DATA ELEMENTS TO INT-PERTABLE-DATA:     =%      UCSD0032
006100*=        INT-TIMEKEEP-DEPT                               =%      UCSD0032
006200*=        INT-TIMEKEEP-SUB                                =%      UCSD0032
006300*=        INT-EMP-LEAVE-CODE                              =%      UCSD0032
001400*==========================================================%      UCSD0032
000105**************************************************************/   37640580
000106*  COPYMEMBER: CPWSXINZ                                      */   37640580
000107*  RELEASE: ___0580______ SERVICE REQUEST(S): _____3764____  */   37640580
000108*  NAME:_____M. SANO_____ MODIFICATION DATE:  ___06/04/91__  */   37640580
000109*  DESCRIPTION:                                              */   37640580
000110*  - ADDED INT-FYTD-RET-GROSS                                */   37640580
000111*    TO INT-PCMTABLE                                         */   37640580
000112**************************************************************/   37640580
000113**************************************************************/   01900580
000114*  COPYMEMBER: CPWSXINZ                                      */   01900580
000115*  RELEASE: ___0580______ SERVICE REQUEST(S): ____10190____  */   01900580
000116*  NAME:___LOU DULANEY___ MODIFICATION DATE:  ___06/12/91__  */   01900580
000117*  DESCRIPTION:                                              */   01900580
000118*  - ADDED INT-YTD-SFHBR-GROSS                               */   01900580
000119*    TO INT-PCMTABLE                                         */   01900580
000120**************************************************************/   01900580
000130**************************************************************/   40280572
000200*  COPYMEMBER: CPWSXINZ                                      */   40280572
000300*  RELEASE: ___0572______ SERVICE REQUEST(S): _____4028____  */   40280572
000400*  NAME:_____J.L._LOE____ MODIFICATION DATE:  ___05/29/91__  */   40280572
000500*  DESCRIPTION:                                              */   40280572
000600*   - ADDED DESCRIPTION OF SPP-FLAG AND SPP-PCT TO PPPBEN    */   40280572
000700*     FOR SEVERANCE PAY                                      */   40280572
000800*                                                            */   40280572
000900**************************************************************/   40280572
001000**************************************************************/   37540566
001100*  COPYMEMBER: CPWSXINZ                                      */   37540566
001200*  RELEASE: ___0566______ SERVICE REQUEST(S): _____3754____  */   37540566
001300*  NAME:_____M. SANO_____ MODIFICATION DATE:  ___04/23/91__  */   37540566
001400*  DESCRIPTION:                                              */   37540566
001500*  - INCREASED SIZE OF GTN-AMT                               */   37540566
001600*                                                            */   37540566
001700**************************************************************/   37540566
006500**************************************************************/   36070542
006600*  COPYMEMBER: CPWSXINZ                                      */   36070542
006700*  RELEASE:______0542____  SERVICE REQ NO(S)__3607__________ */   36070542
006800*  REF REL:______0535____                                    */   36070542
006900*  NAME:___PXP___________  MODIFICATION DATE    __03/04/91__ */   36070542
007000*  DESCRIPTION                                               */   36070542
007100*      FIX ERRORS IN SYNCHRONIZATION WITH CPWSXTBL           */   36070542
007200*      FIX ERROR IN DATE INITIAL VALUE                       */   36070542
007300**************************************************************/   36070542
007400**************************************************************/   45340542
007500*  COPYMEMBER: CPWSXINZ                                      */   45340542
007600*  RELEASE: ___0542______ SERVICE REQUEST(S): _____4534____  */   45340542
007700*  NAME:___M. BAPTISTA___ MODIFICATION DATE:  ___03/04/91__  */   45340542
007800*  DESCRIPTION:                                              */   45340542
007900*  - REMOVED DENTAL AND VISION ALTERNATIVE FIELDS.           */   45340542
008000*                                                            */   45340542
008100*  - ADDED INT-BELI-EFF-DATE TO THE PPPBEL TABLE             */   40240542
008200**************************************************************/   45340542
000100**************************************************************/   36070535
000200*  COPYMEMBER: CPWSXINZ                                      */   36070535
000300*  RELEASE:______0535____  SERVICE REQ NO(S)__3606,3607_____ */   36070535
000400*  NAME:___J.LUCAS_______  MODIFICATION DATE    __02/06/91__ */   36070535
000500*  DESCRIPTION                                               */   36070535
000600*  ADDED NEW DATA ELEMENTS FOR REVISED PAF PROCESSING        */   36070535
000700*  DELETED   DATA ELEMENTS FOR REVISED PAF PROCESSING        */   36070535
000800*   MOVED WORK STUDY PGM FROM APPT TO DIST                   */   36060535
000900*                                                            */   36070535
001000**************************************************************/   36070535
000100******************************************************************40070508
000200*  COPYMEMBER: CPWSXINZ                                          *40070508
000300*  RELEASE: ____0508____  SERVICE REQUEST(S): ____4007____       *40070508
000400*  NAME: LOU (BLACK) DULANEY   CREATION DATE: __10/11/90__       *40070508
000500*  DESCRIPTION:                                                  *40070508
000600*  DEFINED CONTRIBUTION PLAN (DCP) WERE ADDED TO THE BEN AND     *40070508
000700*  PCM TABLE ROWS.                                               *40070508
001401******************************************************************37270493
001402*  COPYMEMBER: CPWSXINZ                                          *37270493
001403*  RELEASE: ____0493____  SERVICE REQUEST(S): ____3727____       *37270493
001404*  NAME: LOU (BLACK) DULANEY   CREATION DATE: __07/30/90__       *37270493
001405*  DESCRIPTION:                                                  *37270493
001406*  THIS COPYMEMBER ESTABLISHES THE INITIALIZED VALUES FOR        *37270493
001407*  THE NEW DB2 EDB FOREIGN ADDRESS TABLE ROW.                    *37270493
001408******************************************************************40180480
001409*  COPYMEMBER: CPWSXINZ                                          *40180480
000300*  RELEASE: ____0480____  SERVICE REQUEST(S): ____4018____       *40180480
000400*  NAME:_____J LUCAS______CREATION DATE:      __06/22/90__       *40180480
000500*  DESCRIPTION:                                                  *40180480
000600*  TWO FCP GROSS TOTALS WERE ADDED TO THE PCM TABLE              *40180480
000100******************************************************************36050446
000200*  COPYMEMBER: CPWSXINZ                                          *36050446
000300*  RELEASE: ____0446____  SERVICE REQUEST(S): ____3605____       *36050446
000400*  NAME:___JONELL LUCAS___CREATION DATE:      __01/31/90__       *36050446
000500*  DESCRIPTION:                                                  *36050446
000600*  THIS COPYMEMBER ESTABLISHES THE INITIALIZED VALUES FOR        *36050446
000700*  EACH DB2 EDB TABLE ROW.                                       *36050446
000800******************************************************************CPWSXINZ
000900******************************************************************CPWSXINZ
001000* APPOINTMENT TABLE                                              *CPWSXINZ
001100******************************************************************CPWSXINZ
001200     03 INT-APPTABLE.                                             CPWSXINZ
001300       05 INT-EMPLOYEE-ID    PIC X(9) VALUE SPACE.                CPWSXINZ
001400       05 INT-APPTABLE-DATA.                                      CPWSXINZ
001500         10 INT-APPT-NUM     PIC S9(4) COMP VALUE ZERO.           CPWSXINZ
001600         10 INT-APPT-ADC-CODE PIC X(1) VALUE SPACE.               CPWSXINZ
001700         10 INT-RATE-CODE    PIC X(1) VALUE SPACE.                CPWSXINZ
001800         10 INT-PAY-SCHEDULE PIC X(2) VALUE SPACE.                CPWSXINZ
001900         10 INT-TIME-REPT-CODE PIC X(1) VALUE SPACE.              CPWSXINZ
002000         10 INT-APPT-WOS-IND PIC X(1) VALUE SPACE.                CPWSXINZ
002100         10 INT-APPT-BEGIN-DATE PIC X(10) VALUE '01/01/0001'.     CPWSXINZ
002200         10 INT-APPT-END-DATE PIC X(10) VALUE '01/01/0001'.       CPWSXINZ
002300         10 INT-APPT-DURATION PIC X(1) VALUE SPACE.               CPWSXINZ
002400         10 INT-TITLE-CODE   PIC X(4) VALUE ZEROS.                CPWSXINZ
002500         10 INT-APPT-TYPE    PIC X(1) VALUE SPACE.                CPWSXINZ
002600         10 INT-ACADEMIC-BASIS PIC X(2) VALUE ZEROS.              CPWSXINZ
005700*********10 INT-WORK-STUDY-PGM PIC X(1) VALUE SPACE.              36060535
002800         10 INT-PERSONNEL-PGM PIC X(1) VALUE SPACE.               CPWSXINZ
005900*********10 INT-APPT-STEP    PIC X(4) VALUE SPACE.                36070535
006000         10 INT-GRADE        PIC X(1) VALUE SPACE.                36070535
006100*********10 INT-APPT-OFF-SCALE PIC X(1) VALUE SPACE.              36070535
003100         10 INT-APPT-PAID-OVER PIC X(2) VALUE SPACE.              CPWSXINZ
003200         10 INT-PAY-RATE     PIC S9(6)V9999 COMP-3 VALUE ZERO.    CPWSXINZ
003300         10 INT-LEAVE-ACRUCODE PIC X(1) VALUE SPACE.              CPWSXINZ
003400         10 INT-RETIREMENT-CODE PIC X(1) VALUE ZEROS.             CPWSXINZ
003500         10 INT-PERCENT-FULLTIME PIC S9V99 COMP-3 VALUE ZERO.     CPWSXINZ
003600         10 INT-FIXED-VAR-CODE PIC X(1) VALUE SPACE.              CPWSXINZ
006800*********10 INT-ACAD-SERV-SUMMER PIC X(1) VALUE SPACE.            36070535
006900*********10 INT-ACAD-SERV-FALL PIC X(1) VALUE SPACE.              36070535
007000*********10 INT-ACAD-SERV-WINTER PIC X(1) VALUE SPACE.            36070535
007100*********10 INT-ACAD-SERV-SPRING PIC X(1) VALUE SPACE.            36070535
004100         10 INT-TITLE-UNIT-CODE PIC X(2) VALUE SPACE.             CPWSXINZ
004200         10 INT-APPT-SPCL-HNDLG PIC X(1) VALUE SPACE.             CPWSXINZ
007310         10 INT-APPT-DEPT       PIC X(6) VALUE SPACE.             36070535
004300         10 INT-APPT-REP-CODE PIC X(1) VALUE SPACE.               CPWSXINZ
004400******************************************************************CPWSXINZ
004500         SKIP3                                                    CPWSXINZ
004600******************************************************************CPWSXINZ
004700* BENEFIT ELIGIBILITY TABLE                                      *CPWSXINZ
004800******************************************************************CPWSXINZ
004900     03 INT-BELTABLE.                                             CPWSXINZ
005000       05 INT-EMPLOYEE-ID    PIC X(9) VALUE SPACES.               CPWSXINZ
005100       05 INT-BELTABLE-DATA.                                      CPWSXINZ
005200         10 INT-BELI-IND     PIC X(1) VALUE SPACES.               CPWSXINZ
005300         10 INT-BELI-DATE    PIC X(10) VALUE '01/01/0001'.        CPWSXINZ
005400         10 INT-CURR-BEN-COVERAGE PIC X(1) VALUE SPACES.          CPWSXINZ
005500         10 INT-BELI-DERIVED-IND PIC X(1) VALUE SPACES.           CPWSXINZ
005600         10 INT-BELI-CONFLICTDATE PIC X(10) VALUE '01/01/0001'.   CPWSXINZ
005700         10 INT-BELI-CHANGEDATE PIC X(10) VALUE '01/01/0001'.     CPWSXINZ
005800         10 INT-BELI-AVGHRSWEEK PIC S9(7)V99 COMP-3 VALUE ZERO.   CPWSXINZ
005900         10 INT-LOA-CURR-AVGEXCLUD PIC X(1) VALUE SPACES.         CPWSXINZ
006000         10 INT-LOA-AVGEXCLUDE.                                   CPWSXINZ
006100         15 INT-LOA-JAN-AVGEXCLUD PIC X(1) VALUE SPACES.          CPWSXINZ
006200         15 INT-LOA-FEB-AVGEXCLUD PIC X(1) VALUE SPACES.          CPWSXINZ
006300         15 INT-LOA-MAR-AVGEXCLUD PIC X(1) VALUE SPACES.          CPWSXINZ
006400         15 INT-LOA-APR-AVGEXCLUD PIC X(1) VALUE SPACES.          CPWSXINZ
006500         15 INT-LOA-MAY-AVGEXCLUD PIC X(1) VALUE SPACES.          CPWSXINZ
006600         15 INT-LOA-JUN-AVGEXCLUD PIC X(1) VALUE SPACES.          CPWSXINZ
006700         15 INT-LOA-JUL-AVGEXCLUD PIC X(1) VALUE SPACES.          CPWSXINZ
006800         15 INT-LOA-AUG-AVGEXCLUD PIC X(1) VALUE SPACES.          CPWSXINZ
006900         15 INT-LOA-SEP-AVGEXCLUD PIC X(1) VALUE SPACES.          CPWSXINZ
007000         15 INT-LOA-OCT-AVGEXCLUD PIC X(1) VALUE SPACES.          CPWSXINZ
007100         15 INT-LOA-NOV-AVGEXCLUD PIC X(1) VALUE SPACES.          CPWSXINZ
007200         15 INT-LOA-DEC-AVGEXCLUD PIC X(1) VALUE SPACES.          CPWSXINZ
007300         10 INT-BEN-COV-INDS.                                     CPWSXINZ
007400         15 INT-JAN-BEN-COV-IND PIC X(1) VALUE SPACES.            CPWSXINZ
007500         15 INT-FEB-BEN-COV-IND PIC X(1) VALUE SPACES.            CPWSXINZ
007600         15 INT-MAR-BEN-COV-IND PIC X(1) VALUE SPACES.            CPWSXINZ
007700         15 INT-APR-BEN-COV-IND PIC X(1) VALUE SPACES.            CPWSXINZ
007800         15 INT-MAY-BEN-COV-IND PIC X(1) VALUE SPACES.            CPWSXINZ
007900         15 INT-JUN-BEN-COV-IND PIC X(1) VALUE SPACES.            CPWSXINZ
008000         15 INT-JUL-BEN-COV-IND PIC X(1) VALUE SPACES.            CPWSXINZ
008100         15 INT-AUG-BEN-COV-IND PIC X(1) VALUE SPACES.            CPWSXINZ
008200         15 INT-SEP-BEN-COV-IND PIC X(1) VALUE SPACES.            CPWSXINZ
008300         15 INT-OCT-BEN-COV-IND PIC X(1) VALUE SPACES.            CPWSXINZ
008400         15 INT-NOV-BEN-COV-IND PIC X(1) VALUE SPACES.            CPWSXINZ
008500         15 INT-DEC-BEN-COV-IND PIC X(1) VALUE SPACES.            CPWSXINZ
020000         10 INT-BELI-EFF-DATE PIC X(10) VALUE '01/01/0001'.       40240542
008600******************************************************************CPWSXINZ
008700     SKIP3                                                        CPWSXINZ
008800******************************************************************CPWSXINZ
008900* BENEFIT PLANS TABLE                                            *CPWSXINZ
009000******************************************************************CPWSXINZ
009100     03  INT-BENTABLE.                                            CPWSXINZ
009200       05 INT-EMPLOYEE-ID    PIC X(9) VALUE SPACES.               CPWSXINZ
009300       05 INT-BENTABLE-DATA.                                      CPWSXINZ
009400         10 INT-AGE-JAN1     PIC S9(4) COMP VALUE ZERO.           CPWSXINZ
009500         10 INT-RET-ELIG-CODE PIC X(1) VALUE SPACES.              CPWSXINZ
009600         10 INT-UCRS-ELIGDATE PIC X(10) VALUE '01/01/0001'.       CPWSXINZ
009700         10 INT-DENTAL-PLAN  PIC X(2) VALUE SPACES.               CPWSXINZ
009800         10 INT-DENTAL-COVERAGE PIC X(3) VALUE SPACES.            CPWSXINZ
009900         10 INT-DENTAL-EFFDATE PIC X(10) VALUE '01/01/0001'.      CPWSXINZ
010000         10 INT-DENTAL-DEENROLL PIC X(1) VALUE SPACES.            CPWSXINZ
010100         10 INT-DENTAL-OPTOUT PIC X(1) VALUE SPACES.              CPWSXINZ
021700*****    10 INT-DENTAL-ALT-CURRMO PIC X(1) VALUE SPACES.          45340542
021800*****    10 INT-DENTAL-ALT-MTH1 PIC X(1) VALUE SPACES.            45340542
021900*****    10 INT-DENTAL-ALT-MTH2 PIC X(1) VALUE SPACES.            45340542
022000*****    10 INT-DENTAL-ALT-MTH3 PIC X(1) VALUE SPACES.            45340542
022100*****    10 INT-DENTAL-ALT-MTH4 PIC X(1) VALUE SPACES.            45340542
022200*****    10 INT-DENTAL-ALT-HIST PIC X(1) VALUE SPACES.            45340542
010800         10 INT-LIFEINS-PLAN PIC X(1) VALUE SPACES.               CPWSXINZ
010900         10 INT-LIFE-SALARY-BASE PIC S9(4) COMP VALUE ZERO.       CPWSXINZ
011000         10 INT-LIFE-UCPAIDAMT PIC X(3) VALUE SPACES.             CPWSXINZ
011100         10 INT-LIFE-EFFDATE PIC X(10) VALUE '01/01/0001'.        CPWSXINZ
011200         10 INT-LIFE-DEENROLL PIC X(1) VALUE SPACES.              CPWSXINZ
011300         10 INT-DEP-LIFE-IND PIC X(1) VALUE SPACES.               CPWSXINZ
011400         10 INT-DEP-LIFE-DEENROLL PIC X(1) VALUE SPACES.          CPWSXINZ
011500         10 INT-DEP-LIFE-EFFDATE PIC X(10) VALUE '01/01/0001'.    CPWSXINZ
011600         10 INT-ADD-PRINC-SUM PIC X(3) VALUE ZEROS.               CPWSXINZ
011700         10 INT-ADD-COVERAGE PIC X(1) VALUE SPACES.               CPWSXINZ
011800         10 INT-ADD-EARNEFFDATE PIC X(10) VALUE '01/01/0001'.     CPWSXINZ
011900         10 INT-ADD-DEENROLL PIC X(1) VALUE SPACES.               CPWSXINZ
012000         10 INT-LTD-SALBASE  PIC S9(5) COMP-3 VALUE ZERO.         CPWSXINZ
012100         10 INT-LTD-EARNEFFDATE PIC X(10) VALUE '01/01/0001'.     CPWSXINZ
012200         10 INT-LTD-DEENROLL PIC X(1) VALUE SPACES.               CPWSXINZ
012300         10 INT-STD-SALBASE  PIC S9(5) COMP-3 VALUE ZERO.         CPWSXINZ
012400         10 INT-STD-WAITPERIOD PIC X(3) VALUE ZEROS.              CPWSXINZ
012500         10 INT-STD-EARNEFFDATE PIC X(10) VALUE '01/01/0001'.     CPWSXINZ
012600         10 INT-STD-DEENROLL PIC X(1) VALUE SPACES.               CPWSXINZ
012700         10 INT-HLTH-PLAN    PIC X(2) VALUE SPACES.               CPWSXINZ
012800         10 INT-HLTH-COVERCODE PIC X(3) VALUE SPACES.             CPWSXINZ
012900         10 INT-HLTH-EARNEFFDATE PIC X(10) VALUE '01/01/0001'.    CPWSXINZ
013000         10 INT-HLTH-DEENROLL PIC X(1) VALUE SPACES.              CPWSXINZ
013100         10 INT-HLTH-OPTOUT  PIC X(1) VALUE SPACES.               CPWSXINZ
013200         10 INT-SEC-HLTH-PLAN PIC X(2) VALUE SPACES.              CPWSXINZ
013300         10 INT-SEC-HLTH-COVERAGE PIC X(3) VALUE SPACES.          CPWSXINZ
013400         10 INT-SEC-HLTH-DATE PIC X(10) VALUE '01/01/0001'.       CPWSXINZ
013500         10 INT-VIS-PLAN     PIC X(2) VALUE SPACES.               CPWSXINZ
013600         10 INT-VIS-COVERAGE PIC X(3) VALUE SPACES.               CPWSXINZ
013700         10 INT-VIS-EARNEFFDATE PIC X(10) VALUE '01/01/0001'.     CPWSXINZ
013800         10 INT-VIS-DEENROLL PIC X(1) VALUE SPACES.               CPWSXINZ
013900         10 INT-VIS-OPTOUT   PIC X(1) VALUE SPACES.               CPWSXINZ
025500*****    10 INT-VIS-ALT-CURRMO PIC X(1) VALUE SPACES.             45340542
025600*****    10 INT-VIS-ALT-MTH1 PIC X(1) VALUE SPACES.               45340542
025700*****    10 INT-VIS-ALT-MTH2 PIC X(1) VALUE SPACES.               45340542
025800*****    10 INT-VIS-ALT-MTH3 PIC X(1) VALUE SPACES.               45340542
025900*****    10 INT-VIS-ALT-MTH4 PIC X(1) VALUE SPACES.               45340542
026000*****    10 INT-VIS-ALT-HIST PIC X(1) VALUE SPACES.               45340542
014600         10 INT-LEGAL-PLAN   PIC X(2) VALUE SPACES.               CPWSXINZ
014700         10 INT-LEGAL-COVERAGE PIC X(3) VALUE SPACES.             CPWSXINZ
014800         10 INT-LEGAL-EARNEFFDATE PIC X(10) VALUE '01/01/0001'.   CPWSXINZ
014900         10 INT-LEGAL-DEENROLL PIC X(1) VALUE SPACES.             CPWSXINZ
015000         10 INT-EXEC-BEN-ELIG PIC X(1) VALUE ZEROS.               CPWSXINZ
015100         10 INT-INS-REDUCT-IND PIC X(1) VALUE SPACES.             CPWSXINZ
015200         10 INT-NDI-CODE     PIC X(1) VALUE SPACES.               CPWSXINZ
015300         10 INT-CAL-CAS-DED-IND PIC X(1) VALUE SPACES.            CPWSXINZ
015400         10 INT-EXEC-LIFEFLAG PIC X(1) VALUE SPACES.              CPWSXINZ
015500         10 INT-EXEC-LIFESALARY PIC S9(4) COMP VALUE ZERO.        CPWSXINZ
015600         10 INT-EXEC-LIFECHANGE PIC X(1) VALUE SPACES.            CPWSXINZ
015700         10 INT-EXEC-LIFECHGDATE PIC X(10) VALUE '01/01/0001'.    CPWSXINZ
015800         10 INT-EXEC-LIFEINCOME PIC S9(7)V99 COMP-3 VALUE ZERO.   CPWSXINZ
017900         10 INT-DCP-PLAN-CODE   PIC X(1) VALUE SPACE.             40070508
022800         10 INT-EXEC-SPP-FLAG   PIC X(1) VALUE SPACE.             40280572
022900         10 INT-EXEC-SPP-PCT    PIC S99V99 COMP-3   VALUE ZERO.   40280572
015900******************************************************************CPWSXINZ
016000     SKIP3                                                        CPWSXINZ
016100******************************************************************CPWSXINZ
016200* BOND TABLE                                                     *CPWSXINZ
016300******************************************************************CPWSXINZ
016400     03  INT-BNDTABLE.                                            CPWSXINZ
016500       05 INT-EMPLOYEE-ID    PIC X(9) VALUE SPACES.               CPWSXINZ
016600       05 INT-BNDTABLE-DATA.                                      CPWSXINZ
016700         10 INT-BOND-NUM     PIC X(1) VALUE SPACES.               CPWSXINZ
016800         10 INT-BOND-ADDCODE PIC X(1) VALUE SPACES.               CPWSXINZ
016900         10 INT-BOND-DELETECODE PIC X(1) VALUE SPACES.            CPWSXINZ
017000         10 INT-BOND-DENOMCODE PIC X(1) VALUE SPACES.             CPWSXINZ
017100         10 INT-BOND-OWNERSSN PIC X(9) VALUE ZEROS.               CPWSXINZ
017200         10 INT-BOND-OWNERNAME1 PIC X(30) VALUE SPACES.           CPWSXINZ
017300         10 INT-BOND-OWNERNAME2 PIC X(2) VALUE SPACES.            CPWSXINZ
017400         10 INT-BOND-OWNERSTRT1 PIC X(30) VALUE SPACES.           CPWSXINZ
017500         10 INT-BOND-OWNERSTRT2 PIC X(2) VALUE SPACES.            CPWSXINZ
017600         10 INT-BOND-OWNERCITY PIC X(19) VALUE SPACES.            CPWSXINZ
017700         10 INT-BOND-OWNERSTATE PIC X(2) VALUE SPACES.            CPWSXINZ
017800         10 INT-BOND-OWNERZIP1 PIC X(5) VALUE ZEROS.              CPWSXINZ
017900         10 INT-BOND-OWNERZIP2 PIC X(4) VALUE ZEROS.              CPWSXINZ
018000         10 INT-BOND-BENEFCODE PIC X(1) VALUE SPACES.             CPWSXINZ
018100         10 INT-BOND-BENEFNAME1 PIC X(30) VALUE SPACES.           CPWSXINZ
018200         10 INT-BOND-BENEFNAME2 PIC X(2) VALUE SPACES.            CPWSXINZ
018300         10 INT-BOND-DELDENOM PIC X(1) VALUE SPACES.              CPWSXINZ
018400         10 INT-BOND-DELOWNSSN PIC X(9) VALUE ZEROS.              CPWSXINZ
018500******************************************************************CPWSXINZ
018600      SKIP3                                                       CPWSXINZ
018700******************************************************************CPWSXINZ
018800* BENEFIT RATE SELECTION TABLE                                   *CPWSXINZ
018900******************************************************************CPWSXINZ
019000     03  INT-BRSTABLE.                                            CPWSXINZ
019100       05 INT-EMPLOYEE-ID    PIC X(9) VALUE SPACES.               CPWSXINZ
019200       05 INT-BRSTABLE-DATA.                                      CPWSXINZ
019300         10 INT-BENRATE-GTN  PIC X(3) VALUE ZEROS.                CPWSXINZ
019400         10 INT-BENRATE-TUC  PIC X(2) VALUE SPACES.               CPWSXINZ
019500         10 INT-BENRATE-REP-CODE PIC X(1) VALUE SPACES.           CPWSXINZ
019600         10 INT-BENRATE-SPCL-HNDLG PIC X(1) VALUE SPACES.         CPWSXINZ
019700         10 INT-BENRATE-DUC  PIC X(1) VALUE SPACES.               CPWSXINZ
019800******************************************************************CPWSXINZ
019900     SKIP3                                                        CPWSXINZ
020000******************************************************************CPWSXINZ
020100* CAMPUS DATA TABLE                                              *CPWSXINZ
020200******************************************************************CPWSXINZ
020300     03  INT-CMPTABLE.                                            CPWSXINZ
020400       05 INT-EMPLOYEE-ID    PIC X(9) VALUE SPACES.               CPWSXINZ
020500       05 INT-CMPTABLE-DATA.                                      CPWSXINZ
020600         10 INT-CAMPUS-DATA1 PIC X(30) VALUE SPACES.              CPWSXINZ
020700         10 INT-CAMPUS-DATA2 PIC X(30) VALUE SPACES.              CPWSXINZ
032400*        10 INT-CAMPUS-DATA3 PIC X(30) VALUE SPACES.              UCSD0035
032500*        10 INT-CAMPUS-DATA4 PIC X(30) VALUE SPACES.              UCSD0035
032600*        10 INT-CAMPUS-DATA5 PIC X(30) VALUE SPACES.              UCSD0035
032700*        10 INT-CAMPUS-DATA6 PIC X(30) VALUE SPACES.              UCSD0035
032800*        10 INT-CAMPUS-DATA7 PIC X(30) VALUE SPACES.              UCSD0035
032900*        10 INT-CAMPUS-DATA8 PIC X(30) VALUE SPACES.              UCSD0035
033000*        10 INT-CAMPUS-DATA9 PIC X(30) VALUE SPACES.              UCSD0035
033100*        10 INT-CAMPUS-DATA10 PIC X(6) VALUE SPACES.              UCSD0035
021600         10 INT-CAMPUS-ADDRESS PIC X(4) VALUE SPACES.             CPWSXINZ
021700         10 INT-CAMPUS-ROOM  PIC X(6) VALUE SPACES.               CPWSXINZ
021800         10 INT-CAMPUS-BLDG  PIC X(10) VALUE SPACES.              CPWSXINZ
021900         10 INT-CAMPUS-PHONE1 PIC X(10) VALUE SPACES.             CPWSXINZ
022000         10 INT-CAMPUS-PHONE2 PIC X(10) VALUE SPACES.             CPWSXINZ
033700         10 INT-ACAD-DISCIPLINE PIC X(8) VALUE SPACES.            UCSD0035
033800         10 INT-ASST-RANK-DATE PIC X(10) VALUE '01/01/0001'.      UCSD0035
033900         10 INT-ASSO-RANK-DATE PIC X(10) VALUE '01/01/0001'.      UCSD0035
034000         10 INT-FULL-RANK-DATE PIC X(10) VALUE '01/01/0001'.      UCSD0035
034100         10 INT-STEP-DATE PIC X(10) VALUE '01/01/0001'.           UCSD0035
034200         10 INT-EDU-INST PIC X(3) VALUE SPACES.                   UCSD0035
034300         10 INT-EDU-LEVEL-2 PIC X(1) VALUE SPACES.                UCSD0035
034400         10 INT-EDU-LEVEL-2-YR PIC X(2) VALUE SPACES.             UCSD0035
034500         10 INT-EDU-LEVEL-2-INST PIC X(3) VALUE SPACES.           UCSD0035
034600         10 INT-PRIOR-SERVICE-INST PIC X(3) VALUE SPACES.         UCSD0035
034700         10 INT-ACAD-SENATE-STATUS PIC X(2) VALUE SPACES.         UCSD0035
022100******************************************************************CPWSXINZ
022200      SKIP3                                                       CPWSXINZ
022300******************************************************************CPWSXINZ
022400* DEDUCTION BALANCES TABLE                                       *CPWSXINZ
022500******************************************************************CPWSXINZ
022600     03  INT-DBLTABLE.                                            CPWSXINZ
022700       05 INT-EMPLOYEE-ID    PIC X(9) VALUE SPACES.               CPWSXINZ
022800       05 INT-DBLTABLE-DATA.                                      CPWSXINZ
022900         10 INT-GTN-NUMBER   PIC X(3) VALUE ZEROS.                CPWSXINZ
023000         10 INT-GTN-IND      PIC X(1) VALUE SPACES.               CPWSXINZ
030200*****    10 INT-GTN-AMT      PIC S9(5)V99  COMP-3 VALUE ZERO.     37540566
030300         10 INT-GTN-AMT      PIC S9(7)V99  COMP-3 VALUE ZERO.     37540566
023200******************************************************************CPWSXINZ
023300      SKIP3                                                       CPWSXINZ
023400******************************************************************CPWSXINZ
023500* DISTRIBUTION TABLE                                             *CPWSXINZ
023600******************************************************************CPWSXINZ
023700     03  INT-DISTABLE.                                            CPWSXINZ
023800       05 INT-EMPLOYEE-ID    PIC X(9) VALUE SPACES.               CPWSXINZ
023900       05 INT-DISTABLE-DATA.                                      CPWSXINZ
024000         10 INT-DIST-APPT-NUM     PIC S9(4)  COMP VALUE ZERO.     CPWSXINZ
024100         10 INT-DIST-NUM     PIC S9(4)  COMP VALUE ZERO.          CPWSXINZ
024200         10 INT-DIST-ADC-CODE PIC X(1) VALUE SPACES.              CPWSXINZ
024300         10 INT-LOCATION-CODE PIC X(1) VALUE SPACES.              CPWSXINZ
024400         10 INT-ACCOUNT-NUM  PIC X(6) VALUE ZEROS.                CPWSXINZ
024500         10 INT-FUND-NUM     PIC X(5) VALUE ZEROS.                CPWSXINZ
024600         10 INT-SUB-ACCT-NUM PIC X(1) VALUE SPACES.               CPWSXINZ
024700         10 INT-DIST-DEPT-CODE PIC X(6) VALUE SPACES.             CPWSXINZ
024800         10 INT-DIST-FTE     PIC S9V99  COMP-3 VALUE ZERO.        CPWSXINZ
024900         10 INT-PAY-BEGIN-DATE PIC X(10) VALUE SPACES.            CPWSXINZ
025000         10 INT-PAY-END-DATE PIC X(10) VALUE SPACES.              CPWSXINZ
025100         10 INT-DIST-PERCENT PIC S9V9999  COMP-3 VALUE ZERO.      CPWSXINZ
025200         10 INT-DIST-PAYRATE PIC S9(5)V9999  COMP-3 VALUE ZERO.   CPWSXINZ
025300         10 INT-DIST-DOS     PIC X(3) VALUE SPACES.               CPWSXINZ
025400         10 INT-DIST-PERQ    PIC X(3) VALUE SPACES.               CPWSXINZ
025500         10 INT-DIST-UNIT-CODE PIC X(1) VALUE SPACES.             CPWSXINZ
028800         10 INT-DIST-STEP      PIC X(3) VALUE SPACES.             36070535
028900         10 INT-DIST-OFF-ABOVE PIC X(1) VALUE SPACES.             36070535
029000         10 INT-WORK-STUDY-PGM PIC X(1) VALUE SPACES.             36060535
025600         10 INT-RANGE-ADJ-DUC PIC X(1) VALUE SPACES.              CPWSXINZ
038700         10 INT-IFIS-ACCT-SUB PIC X(1) VALUE SPACES.              UCSD0033
038800         10 INT-IFIS-INDEX   PIC X(7) VALUE SPACES.               UCSD0033
038900         10 INT-IFIS-FUND    PIC X(6) VALUE SPACES.               UCSD0033
039000         10 INT-IFIS-ORG     PIC X(6) VALUE SPACES.               UCSD0033
039100         10 INT-IFIS-PROGRAM PIC X(6) VALUE SPACES.               UCSD0033
039200         10 INT-IFIS-UC-LOC2-LOC3 PIC X(2) VALUE SPACES.          UCSD0033
025700******************************************************************CPWSXINZ
025800       SKIP3                                                      CPWSXINZ
025900******************************************************************CPWSXINZ
026000* EARNINGS ACTIVITY TABLE                                        *CPWSXINZ
026100******************************************************************CPWSXINZ
026200     03  INT-EARTABLE.                                            CPWSXINZ
026300       05 INT-EMPLOYEE-ID    PIC X(9) VALUE SPACES.               CPWSXINZ
026400       05 INT-EARTABLE-DATA.                                      CPWSXINZ
026500         10 INT-MTH-PAY-IND  PIC X(1) VALUE SPACES.               CPWSXINZ
026600         10 INT-CURR-PAY-IND PIC X(1) VALUE SPACES.               CPWSXINZ
026700         10 INT-PRIOR-PAY-MTH1 PIC X(1) VALUE SPACES.             CPWSXINZ
026800         10 INT-PRIOR-PAY-MTH2 PIC X(1) VALUE SPACES.             CPWSXINZ
026900         10 INT-PRIOR-PAY-MTH3 PIC X(1) VALUE SPACES.             CPWSXINZ
027000         10 INT-MONTH-PAY-INDS.                                   CPWSXINZ
027100         15 INT-JAN-PAY-IND  PIC X(1) VALUE SPACES.               CPWSXINZ
027200         15 INT-FEB-PAY-IND  PIC X(1) VALUE SPACES.               CPWSXINZ
027300         15 INT-MAR-PAY-IND  PIC X(1) VALUE SPACES.               CPWSXINZ
027400         15 INT-APR-PAY-IND  PIC X(1) VALUE SPACES.               CPWSXINZ
027500         15 INT-MAY-PAY-IND  PIC X(1) VALUE SPACES.               CPWSXINZ
027600         15 INT-JUN-PAY-IND  PIC X(1) VALUE SPACES.               CPWSXINZ
027700         15 INT-JUL-PAY-IND  PIC X(1) VALUE SPACES.               CPWSXINZ
027800         15 INT-AUG-PAY-IND  PIC X(1) VALUE SPACES.               CPWSXINZ
027900         15 INT-SEP-PAY-IND  PIC X(1) VALUE SPACES.               CPWSXINZ
028000         15 INT-OCT-PAY-IND  PIC X(1) VALUE SPACES.               CPWSXINZ
028100         15 INT-NOV-PAY-IND  PIC X(1) VALUE SPACES.               CPWSXINZ
028200         15 INT-DEC-PAY-IND  PIC X(1) VALUE SPACES.               CPWSXINZ
028300         10 INT-YTD-TOTAL-HOURS PIC S9(7)V99 COMP-3 VALUE ZERO.   CPWSXINZ
028400         10 INT-YTD-REG-HRS-WORK PIC S9(7)V99 COMP-3 VALUE ZERO.  CPWSXINZ
028500         10 INT-YTD-OVERTIME PIC S9(7)V99  COMP-3 VALUE ZERO.     CPWSXINZ
028600         10 INT-YTD-NON-WORKED PIC S9(7)V99 COMP-3 VALUE ZERO.    CPWSXINZ
028700         10 INT-SPEC-VAC-MAXHRS PIC S9(7)V99 COMP-3 VALUE ZERO.   CPWSXINZ
028800         10 INT-NORM-VAC-MAX PIC S9(7)V99  COMP-3 VALUE ZERO.     CPWSXINZ
028900         10 INT-VAC-HRS-BALANCE PIC S9(5)V9(6) COMP-3 VALUE ZERO. CPWSXINZ
029000         10 INT-SPEC-SICKLV-MAX PIC S9(7)V99 COMP-3 VALUE ZERO.   CPWSXINZ
029100         10 INT-NORM-SICKLV-MAX PIC S9(7)V99 COMP-3 VALUE ZERO.   CPWSXINZ
029200         10 INT-SICK-LV-HRS-BAL PIC S9(5)V9(6) COMP-3 VALUE ZERO. CPWSXINZ
029300         10 INT-SPEC-PTO-MAX PIC S9(7)V99  COMP-3 VALUE ZERO.     CPWSXINZ
029400         10 INT-NORM-PTO-MAX PIC S9(7)V99  COMP-3 VALUE ZERO.     CPWSXINZ
029500         10 INT-PTO-HRS-BAL  PIC S9(5)V9(6)  COMP-3 VALUE ZERO.   CPWSXINZ
029600         10 INT-COMP-TIME-BAL PIC S9(7)V99 COMP-3 VALUE ZERO.     CPWSXINZ
029700         10 INT-LAST-STUB-VAC-BAL PIC S9(7)V99 COMP-3 VALUE ZERO. CPWSXINZ
029800         10 INT-LAST-STUB-SICK-BAL PIC S9(7)V99 COMP-3 VALUE ZERO.CPWSXINZ
029900         10 INT-LAST-STUB-PTO-BAL PIC S9(7)V99 COMP-3 VALUE ZERO. CPWSXINZ
030000         10 INT-LAST-STUB-VAC-IND PIC X(1) VALUE SPACES.          CPWSXINZ
030100         10 INT-LAST-STUB-SICK-IND PIC X(1) VALUE SPACES.         CPWSXINZ
030200         10 INT-LAST-STUB-PTO-IND PIC X(1) VALUE SPACES.          CPWSXINZ
030300******************************************************************CPWSXINZ
030400      SKIP3                                                       CPWSXINZ
030500******************************************************************CPWSXINZ
030600* LEAVE ACCRUAL HISTORY TABLE                                    *CPWSXINZ
030700******************************************************************CPWSXINZ
030800     03  INT-LAHTABLE.                                            CPWSXINZ
030900       05 INT-EMPLOYEE-ID       PIC X(9) VALUE SPACES.            CPWSXINZ
031000       05 INT-LAHTABLE-DATA.                                      CPWSXINZ
031100         10 INT-ACRUHIST-SYS-CTR1 PIC S9(4)                       CPWSXINZ
031200                                  USAGE COMP VALUE ZERO.          CPWSXINZ
031300         10 INT-ACRUHIST-SYS-CTR2 PIC XX VALUE ZERO.              CPWSXINZ
031400         10 INT-ACRUHIST-KEY PIC X(6) VALUE SPACES.               CPWSXINZ
031500         10 INT-ACRUHIST-PLAN PIC X(1) VALUE SPACES.              CPWSXINZ
031600         10 INT-ACRUHIST-HOURS PIC S999V99 COMP-3 VALUE ZERO.     CPWSXINZ
031700         10 INT-ACRUHIST-HRSCODE PIC X(1) VALUE SPACES.           CPWSXINZ
031800         10 INT-ACRUHIST-VACHRS PIC S999V99 COMP-3 VALUE ZERO.    CPWSXINZ
031900         10 INT-ACRUHIST-SICKHRSU PIC S999V99 COMP-3 VALUE ZERO.  CPWSXINZ
032000         10 INT-ACRUHIST-PTOHRS PIC S999V99 COMP-3 VALUE ZERO.    CPWSXINZ
032100******************************************************************CPWSXINZ
032200      SKIP3                                                       CPWSXINZ
032300******************************************************************CPWSXINZ
032400* LEAVE ACCRUAL CURRENT PERIOD TABLE                             *CPWSXINZ
032500******************************************************************CPWSXINZ
032600     03  INT-LAPTABLE.                                            CPWSXINZ
032700       05 INT-EMPLOYEE-ID       PIC X(9) VALUE SPACES.            CPWSXINZ
032800       05 INT-LAPTABLE-DATA.                                      CPWSXINZ
032900         10 INT-ACRUPER-SYS-CTR PIC S9(4) USAGE COMP VALUE ZERO.  CPWSXINZ
033000         10 INT-ACRUPER-ENDDATE PIC X(10) VALUE '01/01/0001'.     CPWSXINZ
033100         10 INT-ACRUPER-CYCLETYPE PIC X(1) VALUE SPACES.          CPWSXINZ
033200         10 INT-ACRUPER-BYPASS PIC X(1) VALUE SPACES.             CPWSXINZ
033300         10 INT-ACRUPER-VAC-LOST PIC S999V99 COMP-3 VALUE ZERO.   CPWSXINZ
033400         10 INT-ACRUPER-SICK-LOST PIC S999V99 COMP-3 VALUE ZERO.  CPWSXINZ
033500         10 INT-ACRUPER-PTO-LOST PIC S999V99 COMP-3 VALUE ZERO.   CPWSXINZ
033600******************************************************************CPWSXINZ
033700      SKIP3                                                       CPWSXINZ
033800******************************************************************CPWSXINZ
033900* LEAVE PLAN HISTORY TABLE                                       *CPWSXINZ
034000******************************************************************CPWSXINZ
034100     03  INT-LPHTABLE.                                            CPWSXINZ
034200       05 INT-EMPLOYEE-ID    PIC X(9) VALUE SPACES.               CPWSXINZ
034300       05 INT-LPHTABLE-DATA.                                      CPWSXINZ
034400         10 INT-LVPLAN-KEY   PIC X(6) VALUE SPACES.               CPWSXINZ
034500         10 INT-LVPLAN-STARTDATE PIC X(10) VALUE '01/01/0001'.    CPWSXINZ
034600         10 INT-LVPLAN-CODE  PIC X(1) VALUE SPACES.               CPWSXINZ
034700******************************************************************CPWSXINZ
034800      SKIP3                                                       CPWSXINZ
034900******************************************************************CPWSXINZ
035000* PAYROLL TABLE                                                  *CPWSXINZ
035100******************************************************************CPWSXINZ
035200     03  INT-PAYTABLE.                                            CPWSXINZ
035300       05 INT-EMPLOYEE-ID    PIC X(9) VALUE SPACES.               CPWSXINZ
035400       05 INT-PAYTABLE-DATA.                                      CPWSXINZ
035500         10 INT-CITIZEN-CODE PIC X(1) VALUE SPACES.               CPWSXINZ
035600         10 INT-VISA-TYPE    PIC X(2) VALUE SPACES.               CPWSXINZ
035700         10 INT-COUNTRY-ORIGIN PIC X(2) VALUE SPACES.             CPWSXINZ
035800         10 INT-ADDRESS-LINE1 PIC X(30) VALUE SPACES.             CPWSXINZ
035900         10 INT-ADDRESS-LINE2 PIC X(30) VALUE SPACES.             CPWSXINZ
036000         10 INT-ADDRESS-CITY PIC X(21) VALUE SPACES.              CPWSXINZ
036100         10 INT-ADDRESS-STATE PIC X(2) VALUE SPACES.              CPWSXINZ
036200         10 INT-ADDRESS-ZIP  PIC X(9) VALUE SPACES.               CPWSXINZ
036300         10 INT-FOREIGN-ADDR-IND  PIC X(1) VALUE SPACES.          CPWSXINZ
036400         10 INT-SOC-SEC-NUM  PIC X(9) VALUE ZEROS.                CPWSXINZ
036500         10 INT-W4-RECEIVED  PIC X(1) VALUE SPACES.               CPWSXINZ
036600         10 INT-FORM-8233-IND PIC X(1) VALUE SPACES.              CPWSXINZ
036700         10 INT-FEDTAX-MARITAL PIC X(1) VALUE SPACES.             CPWSXINZ
036800         10 INT-FEDTAX-EXEMPT PIC S9(4) COMP VALUE ZERO.          CPWSXINZ
036900         10 INT-MAXFED-EXEMPT PIC S9(4) COMP VALUE ZERO.          CPWSXINZ
037000         10 INT-STATE-TAX-MARITAL PIC X(1) VALUE SPACES.          CPWSXINZ
037100         10 INT-STATE-TAX-PERDED PIC S9(4) COMP VALUE ZERO.       CPWSXINZ
037200         10 INT-STATE-TAX-ITMDED PIC S9(4) COMP VALUE ZERO.       CPWSXINZ
037300         10 INT-STATE-TAX-MAXEXMPT PIC S9(4) COMP VALUE ZERO.     CPWSXINZ
037400         10 INT-FICA-ELIG-CODE PIC X(1) VALUE SPACES.             CPWSXINZ
037500         10 INT-BANK-TBL-KEY PIC X(5) VALUE SPACES.               CPWSXINZ
037600         10 INT-BANK-ACCTNUM PIC X(13) VALUE SPACES.              CPWSXINZ
037700         10 INT-SURE-ACCTNUM PIC X(17) VALUE SPACES.              CPWSXINZ
037800         10 INT-SURE-TYPEIND PIC X(1) VALUE SPACES.               CPWSXINZ
037900         10 INT-SURE-PRENOTE-STAT PIC X(1) VALUE SPACES.          CPWSXINZ
038000         10 INT-SURE-CYCLEDATE PIC X(10) VALUE '01/01/0001'.      CPWSXINZ
038100         10 INT-SURE-ACTIVATE-CNT  PIC S9(4)                      CPWSXINZ
038200                                  USAGE COMP VALUE ZERO.          CPWSXINZ
038300         10 INT-SURE-PRENOTE-CYCLE PIC X(2) VALUE SPACES.         CPWSXINZ
038400         10 INT-SURE-BANK-KEY PIC X(5) VALUE SPACES.              CPWSXINZ
038500         10 INT-CHK-STREET1  PIC X(30) VALUE SPACES.              CPWSXINZ
038600         10 INT-CHK-STREET2  PIC X(30) VALUE SPACES.              CPWSXINZ
038700         10 INT-CHK-CITY     PIC X(21) VALUE SPACES.              CPWSXINZ
038800         10 INT-CHK-STATE    PIC X(2) VALUE SPACES.               CPWSXINZ
038900         10 INT-CHK-ZIP      PIC X(9) VALUE SPACES.               CPWSXINZ
039000         10 INT-PRIOR-EMP-ID PIC X(9) VALUE ZEROS.                CPWSXINZ
039100         10 INT-UI-ELIG-CODE PIC X(1) VALUE SPACES.               CPWSXINZ
039200         10 INT-TT-INCOME-CODE PIC 9(2) VALUE ZEROS.              CPWSXINZ
039300         10 INT-ALT-TT-CODE    PIC 9(2) VALUE ZEROS.              CPWSXINZ
039400         10 INT-TT-END-DATE    PIC X(10) VALUE '01/01/0001'.      CPWSXINZ
039500         10 INT-TT-ARTICLE-NO  PIC X(3) VALUE SPACES.             CPWSXINZ
039600         10 INT-TT-DOLLAR-LIMIT PIC S9(5)V99 COMP-3 VALUE ZEROS.  CPWSXINZ
039700         10 INT-NONUC-HLTH-EXPDATE PIC X(10) VALUE '01/01/0001'.  CPWSXINZ
053400         10 INT-SURE-VALID      PIC X(1) VALUE SPACES.            UCSD0032
053500         10 INT-SURE-TRANSIT    PIC X(10) VALUE SPACES.           UCSD0032
053600         10 INT-SURE-MAILDROP   PIC X(7) VALUE SPACES.            UCSD0032
041500         10 INT-SURE-CHECK-DISP PIC X(1) VALUE SPACES.            UCSD0032
039800******************************************************************CPWSXINZ
039900      SKIP3                                                       CPWSXINZ
040000******************************************************************CPWSXINZ
040100* CORPORATE CREDIT CARD TABLE                                    *CPWSXINZ
040200******************************************************************CPWSXINZ
040300     03  INT-PCCTABLE.                                            CPWSXINZ
040400       05 INT-EMPLOYEE-ID       PIC X(9) VALUE SPACES.            CPWSXINZ
040500       05 INT-PCCTABLE-DATA.                                      CPWSXINZ
040600         10 INT-CREDIT-CARDTYPE PIC X(1) VALUE SPACES.            CPWSXINZ
040700         10 INT-CREDIT-CARDSTATUS PIC X(1) VALUE SPACES.          CPWSXINZ
040800         10 INT-CREDIT-CARDDATE PIC X(10) VALUE '01/01/0001'.     CPWSXINZ
040900******************************************************************CPWSXINZ
041000      SKIP3                                                       CPWSXINZ
041100******************************************************************CPWSXINZ
041200* PAYROLL COMPUTATION TABLE                                      *CPWSXINZ
041300******************************************************************CPWSXINZ
041400     03  INT-PCMTABLE.                                            CPWSXINZ
041500       05 INT-EMPLOYEE-ID    PIC X(9) VALUE SPACES.               CPWSXINZ
041600       05 INT-PCMTABLE-DATA.                                      CPWSXINZ
041700         10 INT-PAYSTAT-CURR-MO PIC S9(7)V99 COMP-3 VALUE ZERO.   CPWSXINZ
041800         10 INT-PAYSTAT-JAN  PIC S9(7)V99  COMP-3 VALUE ZERO.     CPWSXINZ
041900         10 INT-PAYSTAT-FEB  PIC S9(7)V99  COMP-3 VALUE ZERO.     CPWSXINZ
042000         10 INT-PAYSTAT-MAR  PIC S9(7)V99  COMP-3 VALUE ZERO.     CPWSXINZ
042100         10 INT-PAYSTAT-APR  PIC S9(7)V99  COMP-3 VALUE ZERO.     CPWSXINZ
042200         10 INT-PAYSTAT-MAY  PIC S9(7)V99  COMP-3 VALUE ZERO.     CPWSXINZ
042300         10 INT-PAYSTAT-JUN  PIC S9(7)V99  COMP-3 VALUE ZERO.     CPWSXINZ
042400         10 INT-PAYSTAT-JUL  PIC S9(7)V99  COMP-3 VALUE ZERO.     CPWSXINZ
042500         10 INT-PAYSTAT-AUG  PIC S9(7)V99  COMP-3 VALUE ZERO.     CPWSXINZ
042600         10 INT-PAYSTAT-SEP  PIC S9(7)V99  COMP-3 VALUE ZERO.     CPWSXINZ
042700         10 INT-PAYSTAT-OCT  PIC S9(7)V99  COMP-3 VALUE ZERO.     CPWSXINZ
042800         10 INT-PAYSTAT-NOV  PIC S9(7)V99  COMP-3 VALUE ZERO.     CPWSXINZ
042900         10 INT-PAYSTAT-DEC  PIC S9(7)V99  COMP-3 VALUE ZERO.     CPWSXINZ
043000         10 INT-YTD-TOTAL-GROSS PIC S9(7)V99 COMP-3 VALUE ZERO.   CPWSXINZ
043100         10 INT-YTD-NONTAX-GROSS PIC S9(7)V99 COMP-3 VALUE ZERO.  CPWSXINZ
043200         10 INT-YTD-FICA-GROSS PIC S9(7)V99 COMP-3 VALUE ZERO.    CPWSXINZ
043300         10 INT-YTD-RET-GROSS PIC S9(7)V99 COMP-3 VALUE ZERO.     CPWSXINZ
043400         10 INT-YTD-SWT-GROSS PIC S9(7)V99 COMP-3 VALUE ZERO.     CPWSXINZ
043500         10 INT-YTD-TAX-FRINGE PIC S9(7)V99 COMP-3 VALUE ZERO.    CPWSXINZ
045700         10 FILLER             PIC S9(7)V99 COMP-3 VALUE ZERO.    40070508
045800*********10 INT-YTD-CETA-GROSS PIC S9(7)V99 COMP-3 VALUE ZERO.    40070508
045900         10 FILLER             PIC S9(7)V99 COMP-3 VALUE ZERO.    40070508
046000*********10 INT-QTD-CETA-GROSS PIC S9(7)V99 COMP-3 VALUE ZERO.    40070508
043800         10 INT-QTD-FICA-GROSS PIC S9(7)V99 COMP-3 VALUE ZERO.    CPWSXINZ
043900         10 INT-YTD-UI-GROSS PIC S9(7)V99  COMP-3 VALUE ZERO.     CPWSXINZ
044000         10 INT-QTD-UI-GROSS PIC S9(7)V99  COMP-3 VALUE ZERO.     CPWSXINZ
044100         10 INT-YTD-MED-GROSS PIC S9(7)V99 COMP-3 VALUE ZERO.     CPWSXINZ
044200         10 INT-QTD-MED-GROSS PIC S9(7)V99 COMP-3 VALUE ZERO.     CPWSXINZ
044300         10 INT-YTD-FWT-GROSS PIC S9(7)V99 COMP-3 VALUE ZERO.     CPWSXINZ
044400         10 INT-QTD-FWT-GROSS PIC S9(7)V99 COMP-3 VALUE ZERO.     CPWSXINZ
044500         10 INT-YTD-OTHER-INCOME PIC S9(7)V99 COMP-3 VALUE ZERO.  CPWSXINZ
044600         10 INT-PRI-PAY-SCHED PIC X(2) VALUE SPACES.              CPWSXINZ
044700         10 INT-MIN-RCD-FLAG PIC X(1) VALUE ZEROS.                CPWSXINZ
044800         10 INT-LAST-PAY-DATE PIC X(10) VALUE '01/01/0001'.       CPWSXINZ
044900         10 INT-PRI-GROSS-CTL PIC X(3) VALUE ZEROS.               CPWSXINZ
045000         10 INT-LAST-GTN-ACT PIC S9(7)V99  COMP-3 VALUE ZERO.     CPWSXINZ
045100         10 INT-CHK-DISP-CODE PIC X(1) VALUE ZEROS.               CPWSXINZ
045200         10 INT-RET-GROSS-CURRMO PIC S9(7)V99 COMP-3 VALUE ZERO.  CPWSXINZ
045300         10 INT-RET-GROSS-PRIOR1 PIC S9(7)V99 COMP-3 VALUE ZERO.  CPWSXINZ
045400         10 INT-RET-GROSS-PRIOR2 PIC S9(7)V99 COMP-3 VALUE ZERO.  CPWSXINZ
045500         10 INT-RET-GROSS-PRIOR3 PIC S9(7)V99 COMP-3 VALUE ZERO.  CPWSXINZ
045600         10 INT-RET-GROSS-PRIOR4 PIC S9(7)V99 COMP-3 VALUE ZERO.  CPWSXINZ
045700         10 INT-RED-GROSS-CURRMO PIC S9(7)V99 COMP-3 VALUE ZERO.  CPWSXINZ
045800         10 INT-RED-GROSS-PRIOR1 PIC S9(7)V99 COMP-3 VALUE ZERO.  CPWSXINZ
045900         10 INT-RED-GROSS-PRIOR2 PIC S9(7)V99 COMP-3 VALUE ZERO.  CPWSXINZ
046000         10 INT-RED-GROSS-PRIOR3 PIC S9(7)V99 COMP-3 VALUE ZERO.  CPWSXINZ
046100         10 INT-RED-GROSS-PRIOR4 PIC S9(7)V99 COMP-3 VALUE ZERO.  CPWSXINZ
046200         10 INT-RET-RATE-CURRMO PIC S9(7)V99 COMP-3 VALUE ZERO.   CPWSXINZ
046300         10 INT-RET-RATE-PRIOR1 PIC S9(7)V99 COMP-3 VALUE ZERO.   CPWSXINZ
046400         10 INT-RET-RATE-PRIOR2 PIC S9(7)V99 COMP-3 VALUE ZERO.   CPWSXINZ
046500         10 INT-RET-RATE-PRIOR3 PIC S9(7)V99 COMP-3 VALUE ZERO.   CPWSXINZ
046600         10 INT-RET-RATE-PRIOR4 PIC S9(7)V99 COMP-3 VALUE ZERO.   CPWSXINZ
046700         10 INT-YTD-TT-GROSS    PIC S9(7)V99 COMP-3 VALUE ZERO.   CPWSXINZ
046800         10 INT-YTD-ALT-TT-GROSS PIC S9(7)V99 COMP-3 VALUE ZERO.  CPWSXINZ
046900         10 INT-ETD-TT-GROSS    PIC S9(7)V99 COMP-3 VALUE ZERO.   CPWSXINZ
047600         10 INT-FCP-TST-TOT-GRS PIC S9(7)V99 COMP-3 VALUE ZERO.   40180480
047700         10 INT-FCP-TST-TAX-GRS  PIC S9(7)V99 COMP-3 VALUE ZERO.  40180480
049500         10 INT-DCP-RATE-CURRMO  PIC S9(7)V99 COMP-3 VALUE ZERO.  40070508
049600         10 INT-DCP-RATE-PRIOR1  PIC S9(7)V99 COMP-3 VALUE ZERO.  40070508
049700         10 INT-DCP-RATE-PRIOR2  PIC S9(7)V99 COMP-3 VALUE ZERO.  40070508
049800         10 INT-DCP-RATE-PRIOR3  PIC S9(7)V99 COMP-3 VALUE ZERO.  40070508
049900         10 INT-DCP-RATE-PRIOR4  PIC S9(7)V99 COMP-3 VALUE ZERO.  40070508
050000         10 INT-YTD-NDIP-GROSS   PIC S9(7)V99 COMP-3 VALUE ZERO.  40070508
055410         10 INT-FYTD-RET-GROSS   PIC S9(7)V99 COMP-3 VALUE ZERO.  37640580
055420         10 INT-YTD-SFHBR-GROSS  PIC S9(7)V99 COMP-3 VALUE ZERO.  01900580
047000******************************************************************CPWSXINZ
047100      SKIP3                                                       CPWSXINZ
047200******************************************************************CPWSXINZ
047300* PERSONNEL TABLE                                                *CPWSXINZ
047400******************************************************************CPWSXINZ
047500     03  INT-PERTABLE.                                            CPWSXINZ
047600       05 INT-EMPLOYEE-ID    PIC X(9) VALUE SPACES.               CPWSXINZ
047700       05 INT-PERTABLE-DATA.                                      CPWSXINZ
047800         10 INT-EMP-NAME     PIC X(26) VALUE SPACES.              CPWSXINZ
047900         10 INT-NAMESUFFIX   PIC X(4) VALUE SPACES.               CPWSXINZ
048000         10 INT-BIRTH-DATE   PIC X(10) VALUE '01/01/0001'.        CPWSXINZ
048100         10 INT-HOME-PHONE   PIC X(10) VALUE SPACES.              CPWSXINZ
048200         10 INT-EMP-PRIOR-NAME PIC X(26) VALUE SPACES.            CPWSXINZ
048300         10 INT-SPOUSE-NAME  PIC X(25) VALUE SPACES.              CPWSXINZ
048400         10 INT-PRIOR-SERVICE-CODE PIC X(1) VALUE SPACES.         CPWSXINZ
048500         10 INT-PRIOR-SERVICE-MTHS PIC S9(4) COMP VALUE ZERO.     CPWSXINZ
048600         10 INT-VET-STATUS   PIC X(1) VALUE SPACES.               CPWSXINZ
048700         10 INT-VET-DISAB-STAT PIC X(1) VALUE SPACES.             CPWSXINZ
048800         10 INT-HANDICAP-STAT PIC X(1) VALUE SPACES.              CPWSXINZ
048900         10 INT-VISA-END-DATE PIC X(10) VALUE '01/01/0001'.       CPWSXINZ
049000         10 INT-ETHNIC-ID    PIC X(1) VALUE SPACES.               CPWSXINZ
049100         10 INT-SEXCODE      PIC X(1) VALUE SPACES.               CPWSXINZ
049200         10 INT-ADDR-DISCLOSURE1 PIC X(1) VALUE SPACES.           CPWSXINZ
049300         10 INT-ADDR-DISCLOSURE2 PIC X(1) VALUE SPACES.           CPWSXINZ
049400         10 INT-SPOUSE-DISC-IND PIC X(1) VALUE SPACES.            CPWSXINZ
049500         10 INT-EMP-ORGAN-DISCLO PIC X(1) VALUE SPACES.           CPWSXINZ
049600         10 INT-PAF-GEN-NUM  PIC S9(4) COMP VALUE ZERO.           CPWSXINZ
049700         10 INT-LAST-ACTION  PIC X(2) VALUE ZEROS.                CPWSXINZ
049800         10 INT-LAST-ACTION-OTHER PIC X(8) VALUE SPACES.          CPWSXINZ
049900         10 INT-LAST-ACTION-DATE PIC X(10) VALUE '01/01/0001'.    CPWSXINZ
050000         10 INT-LAST-CHG-DATE PIC X(10) VALUE '01/01/0001'.       CPWSXINZ
050100         10 INT-HIRE-DATE    PIC X(10) VALUE '01/01/0001'.        CPWSXINZ
050200         10 INT-HOME-DEPT    PIC X(6) VALUE ZEROS.                CPWSXINZ
050300         10 INT-EMP-STATUS   PIC X(1) VALUE SPACES.               CPWSXINZ
050400         10 INT-EDU-LEVEL    PIC X(1) VALUE SPACES.               CPWSXINZ
050500         10 INT-STUDENT-STATUS PIC X(1) VALUE ZEROS.              CPWSXINZ
050600         10 INT-EDU-LEVEL-YR PIC X(2) VALUE ZEROS.                CPWSXINZ
065700*****    10 INT-PAY-RATE-CHG PIC X(1) VALUE ZEROS.                36070542
050800         10 INT-NEXT-SALARY-REV PIC X(1) VALUE ZEROS.             CPWSXINZ
050900         10 INT-NEXT-SALREV-DATE PIC X(10) VALUE '01/01/0001'.    CPWSXINZ
051000         10 INT-STAFF-SALARY-REV PIC X(1) VALUE SPACES.           CPWSXINZ
051100         10 INT-STAFF-SALREV-STAT PIC X(1) VALUE SPACES.          CPWSXINZ
051200         10 INT-STAFF-SALREV-DATE PIC X(10) VALUE '01/01/0001'.   CPWSXINZ
051300         10 INT-MERIT-PERCENT PIC S99V99 COMP-3 VALUE ZERO.       CPWSXINZ
066400*****    10 INT-RECLASS-TYPE PIC X(1) VALUE ZERO.                 36070542
051500         10 INT-LOA-BEGIN-DATE PIC X(10) VALUE '01/01/0001'.      CPWSXINZ
051600         10 INT-LOA-RETURN-DATE PIC X(10) VALUE '01/01/0001'.     CPWSXINZ
051700         10 INT-LOA-TYPE-CODE PIC X(2) VALUE ZEROS.               CPWSXINZ
051800         10 INT-LOA-STATUS-IND PIC X(1) VALUE SPACES.             CPWSXINZ
051900         10 INT-EMP-REL-CODE PIC X(1) VALUE SPACES.               CPWSXINZ
052000         10 INT-EMP-CBUC     PIC X(2) VALUE SPACES.               CPWSXINZ
052100         10 INT-EMP-REL-UNIT PIC X(2) VALUE SPACES.               CPWSXINZ
052200         10 INT-EMP-SPEC-HAND PIC X(1) VALUE SPACES.              CPWSXINZ
052300         10 INT-EMP-DIST-UNIT-CODE PIC X(1) VALUE SPACES.         CPWSXINZ
052400         10 INT-EMP-REP-CODE PIC X(1) VALUE SPACES.               CPWSXINZ
052500         10 INT-SEPARATE-DATE PIC X(10) VALUE '01/01/0001'.       CPWSXINZ
052600         10 INT-SEPARATE-REASON PIC X(2) VALUE SPACES.            CPWSXINZ
052700         10 INT-SEPARATE-DESTIN PIC X(1) VALUE SPACES.            CPWSXINZ
067800*****    10 INT-LAST-DAY-ON-PAY PIC X(10) VALUE SPACES.           36070542
067900         10 INT-LAST-DAY-ON-PAY PIC X(10) VALUE '01/01/0001'.     36070542
055900         10 INT-STRIKE-INDICATOR PIC X(1) VALUE SPACES.           40070508
054600         10 INT-TIMEKEEP-DEPT PIC X(6) VALUE SPACES.              UCSD0032
054700         10 INT-TIMEKEEP-SUB PIC X(2) VALUE SPACES.               UCSD0032
054800         10 INT-EMP-LEAVE-CODE PIC X(1) VALUE SPACES.             UCSD0032
068400         10 INT-LAST-UPD-OPERATOR PIC X(3) VALUE SPACES.          UCSD0035
068500         10 INT-LAST-UPD-DATE PIC X(7) VALUE '0000000'.           UCSD0035
068600         10 INT-LAST-UPD-TIME PIC X(7) VALUE '0000000'.           UCSD0035
068700         10 INT-LAST-SCRN-FUNC PIC X(4) VALUE SPACES.             UCSD0035
068800         10 INT-VICE-CHAN-UNIT PIC X(2) VALUE SPACES.             UCSD0035
068900         10 INT-COLLEGE-CODE PIC X(3) VALUE SPACES.               UCSD0035
069000         10 INT-MAIL-DROP-CODE PIC X(5) VALUE SPACES.             UCSD0035
069100         10 INT-ACAD-REVIEW-DATE PIC X(10) VALUE '01/01/0001'.    UCSD0035
052800******************************************************************CPWSXINZ
054802      SKIP3                                                       37270493
054803******************************************************************37270493
054804* FOREIGN ADDRESS TABLE                                          *37270493
054805******************************************************************37270493
054806     03  INT-FADTABLE.                                            37270493
054900       05 INT-EMPLOYEE-ID    PIC X(9) VALUE SPACES.               37270493
055000       05 INT-FADTABLE-DATA.                                      37270493
055100         10 INT-FAD-COUNTRY       PIC X(2) VALUE SPACES.          37270493
055200         10 INT-FAD-PROVINCE      PIC X(15) VALUE SPACES.         37270493
055300         10 INT-FAD-POSTAL-CODE   PIC X(10) VALUE SPACES.         37270493
055400******************************************************************37270493
