000100******************************************************************40280572
000200*  COPYMEMBER: CPWSXSP3                                          *40280572
000300*  RELEASE: ____0572____  SERVICE REQUEST(S): ____4028____       *40280572
000400*  NAME:__PXP___________  CREATION DATE:      ___05/29/91_       *40280572
000500*  DESCRIPTION:                                                  *40280572
000600*    ARRAY OF SPP ROW DATA                                       *40280572
000700* ****************************************************************40280572
000800*    COPYID=CPWSXSP3                                              CPWSXSP3
000900     05  PPSPPUTL-ENTRIES.                                        CPWSXSP3
001000     10  PPSPPUTL-ENTRY     OCCURS 02   TIMES.                    CPWSXSP3
001100     15 SPP-PROGRAM          PIC X(1).                            CPWSXSP3
001200     15 TOTAL-SPP-CONTRIB    PIC S9999999V99 USAGE COMP-3.        CPWSXSP3
001300     15 MONTH1-SPP-CONTRIB   PIC S9999999V99 USAGE COMP-3.        CPWSXSP3
001400     15 MONTH2-SPP-CONTRIB   PIC S9999999V99 USAGE COMP-3.        CPWSXSP3
001500     15 MONTH3-SPP-CONTRIB   PIC S9999999V99 USAGE COMP-3.        CPWSXSP3
001600     15 MONTH4-SPP-CONTRIB   PIC S9999999V99 USAGE COMP-3.        CPWSXSP3
001700     15 MONTH5-SPP-CONTRIB   PIC S9999999V99 USAGE COMP-3.        CPWSXSP3
001800     15 MONTH6-SPP-CONTRIB   PIC S9999999V99 USAGE COMP-3.        CPWSXSP3
001900     15 TOTAL-SPP-INTEREST   PIC S9999999V99 USAGE COMP-3.        CPWSXSP3
002000     15 TOTAL-SPP-PAID       PIC S9999999V99 USAGE COMP-3.        CPWSXSP3
002100     15 SPP-DATE             PIC X(10).                           CPWSXSP3
