000000**************************************************************/   48711432
000001*  COPYMEMBER: CPWSXBRT                                      */   48711432
000002*  RELEASE: ___1432______ SERVICE REQUEST(S): ____14871____  */   48711432
000003*  NAME:____S.ISAACS_____ MODIFICATION DATE:  ___08/29/02__  */   48711432
000004*  DESCRIPTION:                                              */   48711432
000005*  - Added one column for reduced deduction amount.          */   48711432
000007**************************************************************/   48711432
000000**************************************************************/   48651402
000001*  COPYMEMBER: CPWSXBRT                                      */   48651402
000002*  RELEASE: ___1402______ SERVICE REQUEST(S): ____14865____  */   48651402
000003*  NAME:_______QUAN______ MODIFICATION DATE:  ___03/19/02__  */   48651402
000004*  DESCRIPTION:                                              */   48651402
000005*  - Increased OCCUR 10 for group life insurance to OCCURS 11*/   48651402
000007**************************************************************/   48651402
000100**************************************************************/   71641280
000200*  COPYMEMBER: CPWSXBRT                                      */   71641280
000300*  RELEASE: ___1280______ SERVICE REQUEST(S): ____17164____  */   71641280
000400*  NAME:_____J.WILCOX____ MODIFICATION DATE:  ___03/08/00__  */   71641280
000500*  DESCRIPTION:                                              */   71641280
000600*  - Added two columns for hours threshold percentage and    */   71641280
000700*    deduction threshold to support calc routine 18 GTNs.    */   71641280
000800**************************************************************/   71641280
000000**************************************************************/   32131177
000001*  COPYMEMBER: CPWSXBRT                                      */   32131177
000002*  RELEASE: ___1177______ SERVICE REQUEST(S): ____13213____  */   32131177
000003*  NAME:__PHIL THOMPSON__ MODIFICATION DATE:  ___03/17/98__  */   32131177
000004*  DESCRIPTION:                                              */   32131177
000005*  - ADD TWO COLUMNS FOR SECOND LEVEL CAP AND CAP GROSS      */   32131177
000007**************************************************************/   32131177
000000**************************************************************/   25991140
000001*  COPYMEMBER: CPWSXBRT                                      */   25991140
000002*  RELEASE: ___1140______ SERVICE REQUEST(S): _12599, 12600_ */   25991140
000003*  NAME:______M SANO_____ MODIFICATION DATE:  ___08/11/97__  */   25991140
000004*  DESCRIPTION:                                              */   25991140
000005*   - added date to brt key                                  */   25991140
000600*  - Modified Group Life Insurance Record to record a "cap"  */   26001140
000700*    amount to be applied to the Salary Base.                */   26001140
000800**************************************************************/   26001140
000101**************************************************************/   34491097
000102*  COPYMEMBER: CPWSXBRT                                      */   34491097
000103*  RELEASE: ___1097______ SERVICE REQUEST(S): _13449, 13477  */   34491097
000104*  NAME:__PHIL THOMPSON__ MODIFICATION DATE:  ___11/21/96__  */   34491097
000105*  DESCRIPTION:                                              */   34491097
000106*  - EXPAND THE HEALTH RATES FIELDS TO S9(4)V99.             */   34491097
000107*  - ADD EPD 90 DAY WAIT AND RATE.                           */   34771097
000108**************************************************************/   34491097
000000**************************************************************/   12570722
000001*  COPYMEMBER: CPWSXBRT                                      */   12570722
000002*  RELEASE: ___0722______ SERVICE REQUEST(S): ____11257____  */   12570722
000003*  NAME:__PHIL THOMPSON__ MODIFICATION DATE:  ___12/08/92__  */   12570722
000004*  DESCRIPTION:                                              */   12570722
000005*    DELETE UU CODE, RATE; TWO-PARTY CONTRIBUTION FOR LEGAL  */   12570722
000006*                                                            */   12570722
000007**************************************************************/   12570722
000000**************************************************************/   02040675
000001*  COPYMEMBER: CPWSXBRT                                      */   02040675
000002*  RELEASE: ___0675______ SERVICE REQUEST(S): _____10204___  */   02040675
000003*  NAME:_____J. QUAN_____ MODIFICATION DATE:  ___05/11/92__  */   02040675
000004*  DESCRIPTION:                                              */   02040675
000006*  - REMOVED STD AND LTD REFERENCES                          */   02040675
000007**************************************************************/   02040675
000000**************************************************************/   02040641
000001*  COPYMEMBER: CPWSXBRT                                      */   02040641
000002*  RELEASE: ___0641______ SERVICE REQUEST(S): ____10204____  */   02040641
000003*  NAME:_____J. QUAN_____ MODIFICATION DATE:  ___02/05/92__  */   02040641
000004*  DESCRIPTION:                                              */   02040641
000005*  - ADD NEW BRT TABLE FOR EMPLOYEE PAID DISABILITY          */   02040641
000007**************************************************************/   02040641
000100**************************************************************/   01900583
000200*  COPYMEMBER: CPWSXBRT                                      */   01900583
000300*  RELEASE: ___0583______ SERVICE REQUEST(S): ____10190____  */   01900583
000400*  NAME:_____J.WILCOX____ MODIFICATION DATE:  ___06/11/91__  */   01900583
000500*  DESCRIPTION:                                              */   01900583
000600*  - DELETED PREVIOUS 'CD' RECORDS                           */   01900583
000700*  - DELETED PREVIOUSLY COMMENTED-OUT LINES; MARKED 'CD'     */   01900583
000800*  - MODIFIED KEY STRUCTURE TO PERMIT SECOND RTR RECORD,     */   01900583
000900*    ALLOWING ADDITION OF ANOTHER 11 RETIREMENT RATES        */   01900583
001000**************************************************************/   01900583
000100*****************************************************************/41060517
000200*  COPYMEMBER: CPWSXBRT                                         */41060517
000300*  RELEASE: ____0517____  SERVICE REQUEST(S): ____4106____      */41060517
000400*  NAME:    __J.WILCOX__  MODIFICATION DATE:  __10/23/90__      */41060517
000500*  DESCRIPTION:                                                 */41060517
000600*                                                               */41060517
000700*    - MODIFIED GLI STRUCTURE TO ALLOW TWO SETS OF DEPENDENT    */41060517
000800*      LIFE RATES.  FIRST SET IS TOTAL PREMIUM FOR FLAT DOLLAR  */41060517
000900*      AMOUNT INSURANCE; SECOND SET IS THE RATE PER $1,000 OF   */41060517
001000*      INSURANCE FOR THE EXPANDED PLAN.  ALSO ADDED CHILD RATE  */41060517
001100*      AND SPOUSAL LIMIT FOR THE EXPANDED PLAN, AS WELL AS A    */41060517
001200*      FLAT COVERAGE AMOUNT FOR THE BASIC DEPENDENT PLAN.       */41060517
001300*****************************************************************/41060517
001400*****************************************************************/45120517
001500*  COPYMEMBER: CPWSXBRT                                         */45120517
001600*  RELEASE: ____0517____  SERVICE REQUEST(S): ____4512____      */45120517
001700*  NAME:    __J.WILCOX__  MODIFICATION DATE:  __10/23/90__      */45120517
001800*  DESCRIPTION:                                                 */45120517
001900*                                                               */45120517
002000*    - DELETED PREVIOUS 'CD' LINES; DELETED PREVIOUSLY          */45120517
002100*      COMMENTED-OUT CODE AND MARKED 'CD'.                      */45120517
002200*    - ELIMINATED SECOND SALARY LEVEL PLATEAU AND RATES FOR     */45120517
002300*      EMPLOYEE-PAID TEMPORARY DISABILITY INSURANCE (STD).      */45120517
002400*    - ADJUSTED FILLER TO MAKE REDEFINED AREA SAME SIZE AS      */45120517
002500*      AREA BEING REDEFINED.                                    */45120517
002600*****************************************************************/45120517
000100**************************************************************/   30930413
000200*  COPYMEMBER: CPWSXBRT                                      */   30930413
000300*  RELEASE # ____0413____ SERVICE REQUEST NO(S)___3093_______*/   30930413
000400*  NAME __JIM WILLIAMS_   MODIFICATION DATE ____06/25/89_____*/   30930413
000600*  DESCRIPTION                                               */   30930413
000700*   - CHANGED FOR CONVERSION FROM OS/VS COBOL TO VS COBOL II.*/   30930413
000900**************************************************************/   30930413
000100**************************************************************/   45360412
000200*  COPYMEMBER: CPWSXBRT                                      */   45360412
000300*  RELEASE: ____0412____  SERVICE REQUEST(S): ____4536____   */   45360412
000400*  NAME:    __J.WILCOX__  MODIFICATION DATE:  __06/05/89__   */   45360412
000500*  DESCRIPTION:                                              */   45360412
000600*                                                            */   45360412
000700*    - MODIFY LTD BENEFITS RATES TABLE RECORD TO HOLD ONLY A */   45360412
000800*      SINGLE SET OF RATES FOR LONG TERM DISABILITY, RATHER  */   45360412
000900*      THAN TWO SETS OF RATES.                               */   45360412
001000**************************************************************/   45360412
001100**************************************************************/   45130381
001200*  COPYMEMBER: CPWSXBRT                                      */   45130381
001300*  RELEASE: ____0381____  SERVICE REQUEST(S): ____4513____   */   45130381
001400*  NAME:    __J.WILCOX__  MODIFICATION DATE:  __10/08/88__   */   45130381
001500*  DESCRIPTION:                                              */   45130381
001600*                                                            */   45130381
001700*  - MODIFY GLI BENEFITS RATES TABLE RECORD TO HOLD ONLY A   */   45130381
001800*    SINGLE SET OF RATES FOR DEPENDENT LIFE INSURANCE,       */   45130381
001900*    RATHER THAN SEPARATE RATES FOR FLAT AND OTHER PLANS.    */   45130381
002000**************************************************************/   45130381
002100**************************************************************/   14920327
002200*  COPYMEMBER: CPWSXBRT                                      */   14920327
002300*  REL:  -----0327---------  SERVICE REQEUSTS: __1492, 1487__*/   14920327
002400*                                                            */   14920327
002500*  NAME _S._ISAACS_____   MODIFICATION DATE ____11/10/87_____*/   14920327
002600*  DESCRIPTION                                               */   14920327
002700*                                                            */   14920327
002800*  S.R. 1492: IMPLEMENT GROUP LEGAL SERVICES PLAN            */   14920327
002900*                                                            */   14920327
003000*  S.R. 1487: NEW AGE GROUP FOR STD, LDT AND GLI             */   14920327
003100*                                                            */   14920327
003200**************************************************************/   14920327
003300**************************************************************/   14420298
003400*  COPY MODULE:  CPWSXBRT                                    */   14420298
003500*  RELEASE # ___0298___   SERVICE REQUEST NO(S)____1442______*/   14420298
003600*  NAME ___CXR_________   MODIFICATION DATE ____04/23/87_____*/   14420298
003700*  DESCRIPTION                                               */   14420298
003800*    MODIFIED THE XBRT-KEY. ADDED REPRESENTATION CODE, TITLE */   14420298
003900*  SPECIAL HANDLING CODE AND DISTRIBUTION UNIT CODE TO THE   */   14420298
004000*  KEY.                                                      */   14420298
004100*    ADD A NEW SEGMENT DESCRIPTION FOR GROSS TO NET SEGMENT. */   14420298
004200**************************************************************/   14420298
004300**************************************************************/   14120250
004400*  COPY MODULE:  CPWSXBRT                                    */   14120250
004500*  RELEASE # ___0250___   SERVICE REQUEST NO(S)____1412______*/   14120250
004600*  NAME ___DBS_________   MODIFICATION DATE ____11/10/86_____*/   14120250
004700*  DESCRIPTION                                               */   14120250
004800*  ADDED VISION CARE SEGMENT.                                */   14120250
004900**************************************************************/   14120250
005000**************************************************************/   13500164
005100*  COPYMEMBER: CPWSXBRT                                      */   13840216
005200*  RELEASE # __216_______ SERVICE REQUEST NO(S)____1384______*/   13840216
005300*  NAME ___JAL_________   MODIFICATION DATE ____ 6/18/86_____*/   13840216
005400*  DESCRIPTION                                               */   13840216
005500*  CHANGE SHORT TERM DISABIL. MIN. WAIT, AGE/RATE CATEGORIES */   13840216
005600**************************************************************/   13840216
005700**************************************************************/   13840216
005800*  COPYMEMBER: CPWSXBRT                                      */   13500164
005900*  RELEASE # ___0164___   SERVICE REQUEST NO(S) 1350         */   13500164
006000*                                               1339         */   13390164
006100*  NAME ___JAG_________   MODIFICATION DATE ____10/14/85_____*/   13500164
006200*  DESCRIPTION                                               */   13500164
006300*    THIS COPYMEMBER WAS MODIFIED TO REDEFINE LIFE INSURANCE */   13390164
006400*   RATES AGE CATEGORY 'UNDER 35' AS 'UNDER 30' AND '30-34', */   13390164
006500*   PER THOUSAND LIFE INSURANCE RATES AS PIC S9V9999         */   13390164
006600*   (PAYROLL USAGE).                                         */   13390164
006700*     IN ADDITION, A NEW LONG TERM DISABILITY (LTD)          */   13500164
006800*   RATES SEGMENT HAS BEEN ADDED.                            */   13500164
006900**************************************************************/   13500164
007000**************************************************************/   22360148
007100*  COPYMEMBER: CPWSXBRT                                      */   22360148
007200*  RELEASE # ___0148___   SERVICE REQUEST NO(S) 2236         */   22360148
007300*  NAME ___JAG_________   MODIFICATION DATE ____03/25/85_____*/   22360148
007400*  DESCRIPTION                                               */   22360148
007500*       **** COLLECTIVE BARGAINING MODIFICATIONS ****        */   22360148
007600*                                                            */   22360148
007700*   XBRT-SUBCBUC HAS BEEN CHANGED TO FILLER.                 */   22360148
007800*                                                            */   22360148
007900**************************************************************/   22360148
008000*    COPYID=CPWSXBRT.                                             CPWSXBRT
008100**************************************************************/   21450120
008200*  COPY MODULE:  CPWSXBRT                                    */   21450120
008300*  RELEASE # ___0120___   SERVICE REQUEST NO    2145         */   21450120
008400*  NAME ____JLT________   MODIFICATION DATE ____08/01/84_____*/   21450120
008500*  DESCRIPTION                                               */   21450120
008600*   THE FLAT RATE (PLAN F) COVERAGE AMOUNT WAS ADDED TO THE  */   21450120
008700*   GROUP LIFE INS (GLI) RECORD.                             */   21450120
008800**************************************************************/   21450120
008900     SKIP2                                                        21450120
009000**************************************************************/   21450087
009100*  COPY MODULE:  CPWSXBRT                                    */   21450087
009200*  RELEASE # ___0087___   SERVICE REQUEST NO    2145         */   21450087
009300*  NAME _G. STEINITZ___   MODIFICATION DATE ____12/13/83_____*/   21450087
009400*  DESCRIPTION                                               */   21450087
009500*   VARIOUS CHANGES WERE MADE TO PROVIDE CBUC CAPABILITES    */   21450087
009600*   IN THE BENEFIT RATES TABLE. NOTE THE KEY IS CHANGED.     */   21450087
009700**************************************************************/   20270076
009800*01  XBRT-BENEFITS-RATES-RECORD.                                  30930413
009900*---------------------------------------------------------------- CPWSXBRT
010000*            B E N E F I T S   R A T E S   T A B L E              CPWSXBRT
010100*---------------------------------------------------------------- CPWSXBRT
010200     03  XBRT-DELETE                 PICTURE X.                   CPWSXBRT
010300     03  XBRT-KEY.                                                CPWSXBRT
010400         05  XBRT-KEY-CONSTANT       PICTURE  X(04).              21450087
010500         05  XBRT-CBUC               PICTURE  X(02).              21450087
010700         05  XBRT-REPRESENTATION-CODE    PIC  X(01).              14420298
010800         05  XBRT-SPCL-HNDLG-CODE        PIC  X(01).              14420298
010900         05  XBRT-DIST-UNIT-CODE         PIC  X(01).              14420298
011100         05  XBRT-IDENTIFICATION-CODE.                            14420298
011200             10  XBRT-BENEFIT-TYPE       PICTURE X(1).            14420298
011300                 88  XBRT-ADD-TYPE       VALUE 'A'.               14420298
011400                 88  XBRT-GLI-TYPE       VALUE 'G'.               14420298
011500                 88  XBRT-GTN-TYPE       VALUE '0' THRU '9'.      14420298
011600                 88  XBRT-HI-TYPE        VALUE 'H'.               14420298
015810                 88  XBRT-EPD-TYPE       VALUE 'Z'.               02040641
011800                 88  XBRT-DI-TYPE        VALUE 'D'.               14420298
011900                 88  XBRT-VI-TYPE        VALUE 'V'.               14420298
012000                 88  XBRT-JD-TYPE        VALUE 'J'.               14920327
012100                 88  XBRT-RTR-TYPE       VALUE 'R'.               14420298
012300             10  XBRT-SEQUENCE-NO        PICTURE 99.              14420298
012400                 88  XBRT-ADD-SEQ-NO     VALUE  01   02   03.     14420298
012500                 88  XBRT-GLI-SEQ-NO     VALUE  01.               14420298
016810                 88  XBRT-EPD-SEQ-NO     VALUE  01.               02040641
017000                 88  XBRT-RTR-SEQ-NO     VALUE  01   02.          01900583
012900             10  XBRT-PLAN-CODE  REDEFINES  XBRT-SEQUENCE-NO      14420298
013000                                         PICTURE X(2).            14420298
013100         05  XBRT-GTN-NUMBER REDEFINES  XBRT-IDENTIFICATION-CODE  14420298
013200                                     PICTURE  9(03).              14420298
021000         05  XBRT-EFFECT-YEAR        PICTURE  9.                  25991140
021001         05  XBRT-EFFECT-YEARX  REDEFINES                         25991140
021002                    XBRT-EFFECT-YEAR PICTURE  X(01).              25991140
022900*****                                                          CD 71641280
013400*                                                                 CPWSXBRT
013500*            ACCIDENTAL   DEATH   AND   DISMEMBERMENT             CPWSXBRT
013600*---------------------------------------------------------------- CPWSXBRT
013700     03  XBRT-ADD-BENEFITS-INFO.                                  CPWSXBRT
013800      05 XBRT-ADD-BENEFITS           OCCURS 15.                   CPWSXBRT
013900          07 XBRT-ADD-PRINCIPAL-SUM  PICTURE S9(3)    COMP-3.     CPWSXBRT
014000          07 XBRT-ADD-SINGLE-RATE    PICTURE S9(3)V99 COMP-3.     CPWSXBRT
014100          07 XBRT-ADD-FAMILY-RATE    PICTURE S9(3)V99 COMP-3.     CPWSXBRT
014200          07 XBRT-ADD-MODIFIED-RATE  PICTURE S9(3)V99 COMP-3.     CPWSXBRT
014300          07 XBRT-ADD-STATUS         PICTURE X.                   CPWSXBRT
014500      05 FILLER                      PICTURE X(24).               21450087
024100*****                                                          CD 71641280
022201      05 XBRT-ADD-EFFECT-DATE.                                    25991140
022210          07  XBRT-ADD-EFFECT-YY     PIC X(02).                   25991140
022220          07  XBRT-ADD-EFFECT-MM     PIC X(02).                   25991140
022230          07  XBRT-ADD-EFFECT-DD     PIC X(02).                   25991140
014700*                                                                 CPWSXBRT
014800*            GROUP   LIFE   INSURANCE   SEGMENT                   CPWSXBRT
014900*---------------------------------------------------------------- CPWSXBRT
015000     03  XBRT-GLI-BENEFITS REDEFINES XBRT-ADD-BENEFITS-INFO.      CPWSXBRT
025000***** 05 XBRT-GLI-INFO               OCCURS 10 TIMES.             48651402
025010      05 XBRT-GLI-INFO               OCCURS 11 TIMES.             48651402
015300          07 XBRT-GLI-MIN-AGE            PICTURE 9(2).            CPWSXBRT
015400          07 XBRT-GLI-MAX-AGE            PICTURE 9(2).            CPWSXBRT
015500          07 XBRT-GLI-RATE-PER-1000      PICTURE S9V9(4)  COMP-3. 13390164
018900          07 XBRT-GLI-DLI-BASIC-RATE     PICTURE S9(3)V99 COMP-3. 41060517
019000          07 XBRT-GLI-DLI-EXPANDED-RATE  PICTURE S9V9(4)  COMP-3. 41060517
019300      05 XBRT-GLI-UPDATE             OCCURS 4.                    41060517
016100          07 XBRT-GLI-UPD            PICTURE X.                   CPWSXBRT
016200          07 XBRT-GLI-DATE           PICTURE X(6).                CPWSXBRT
016300      05 XBRT-GLI-PLANF-COV-AMT      PICTURE 999.                 21450120
019700      05 XBRT-GLI-DLI-PLANF-COV-AMT  PICTURE 999.                 41060517
019800      05 XBRT-GLI-DLI-SPOUSE-LIMIT   PICTURE 999.                 41060517
019900      05 XBRT-GLI-DLI-CHILD-RATE     PICTURE S9(3)V99 COMP-3.     41060517
024100      05 XBRT-GLI-MAX-SALARY-BASE    PICTURE 999.                 26001140
026500***** 05 FILLER                      PICTURE X(31).               48651402
026510      05 FILLER                      PICTURE X(18).               48651402
016700      05 XBRT-GLI-EFFECT-DATE        PICTURE X(06).               21450087
016800*                                                                 CPWSXBRT
016900*               HEALTH   INSURANCE   SEGMENT                      CPWSXBRT
017000*---------------------------------------------------------------- CPWSXBRT
017100     03  XBRT-HI-BENEFITS  REDEFINES XBRT-ADD-BENEFITS-INFO.      CPWSXBRT
017200      05 XBRT-HI-COV-CD-U            PICTURE X(3).                CPWSXBRT
017300         88  COV-CD-U                VALUE 'U  '.                 CPWSXBRT
021610      05 XBRT-HI-RATE-U              PICTURE S9(4)V99    COMP-3.  34491097
017500      05 XBRT-HI-COV-CD-UU           PICTURE X(3).                CPWSXBRT
017600         88  COV-CD-UU               VALUE 'UU '.                 CPWSXBRT
021910      05 XBRT-HI-RATE-UU             PICTURE S9(4)V99    COMP-3.  34491097
017800      05 XBRT-HI-COV-CD-UUU          PICTURE X(3).                CPWSXBRT
017900         88  COV-CD-UUU              VALUE 'UUU'.                 CPWSXBRT
022210      05 XBRT-HI-RATE-UUU            PICTURE S9(4)V99    COMP-3.  34491097
018100      05 XBRT-HI-COV-CD-M            PICTURE X(3).                CPWSXBRT
018200         88  COV-CD-M                VALUE 'M  '.                 CPWSXBRT
022510      05 XBRT-HI-RATE-M              PICTURE S9(4)V99    COMP-3.  34491097
018400      05 XBRT-HI-COV-CD-MM           PICTURE X(3).                CPWSXBRT
018500         88  COV-CD-MM               VALUE 'MM '.                 CPWSXBRT
022810      05 XBRT-HI-RATE-MM             PICTURE S9(4)V99    COMP-3.  34491097
018700      05 XBRT-HI-COV-CD-MU           PICTURE X(3).                CPWSXBRT
018800         88  COV-CD-MU               VALUE 'MU '.                 CPWSXBRT
023110      05 XBRT-HI-RATE-MU             PICTURE S9(4)V99    COMP-3.  34491097
019000      05 XBRT-HI-COV-CD-UM           PICTURE X(3).                CPWSXBRT
019100         88  COV-CD-UM               VALUE 'UM '.                 CPWSXBRT
023410      05 XBRT-HI-RATE-UM             PICTURE S9(4)V99    COMP-3.  34491097
019300      05 XBRT-HI-COV-CD-MMU          PICTURE X(3).                CPWSXBRT
019400         88  COV-CD-MMU              VALUE 'MMU'.                 CPWSXBRT
023710      05 XBRT-HI-RATE-MMU            PICTURE S9(4)V99    COMP-3.  34491097
019600      05 XBRT-HI-COV-CD-MUU          PICTURE X(3).                CPWSXBRT
019700         88  COV-CD-MUU              VALUE 'MUU'.                 CPWSXBRT
024010      05 XBRT-HI-RATE-MUU            PICTURE S9(4)V99    COMP-3.  34491097
019900      05 XBRT-HI-COV-CD-UMU          PICTURE X(3).                CPWSXBRT
020000         88  COV-CD-UMU              VALUE 'UMU'.                 CPWSXBRT
024310      05 XBRT-HI-RATE-UMU            PICTURE S9(4)V99    COMP-3.  34491097
020200      05 XBRT-HI-COV-CD-MMM          PICTURE X(3).                CPWSXBRT
020300         88  COV-CD-MMM              VALUE 'MMM'.                 CPWSXBRT
024610      05 XBRT-HI-RATE-MMM            PICTURE S9(4)V99    COMP-3.  34491097
020500      05 XBRT-HI-COV-CD-MUM          PICTURE X(3).                CPWSXBRT
020600         88  COV-CD-MUM              VALUE 'MUM'.                 CPWSXBRT
024910      05 XBRT-HI-RATE-MUM            PICTURE S9(4)V99    COMP-3.  34491097
020800      05 XBRT-HI-COV-CD-UMM          PICTURE X(3).                CPWSXBRT
020900         88  COV-CD-UMM              VALUE 'UMM'.                 CPWSXBRT
025220      05 XBRT-HI-RATE-UMM            PICTURE S9(4)V99    COMP-3.  34491097
021100      05 XBRT-HI-COV-CD-UUM          PICTURE X(3).                CPWSXBRT
021200         88  COV-CD-UUM              VALUE 'UUM'.                 CPWSXBRT
025510      05 XBRT-HI-RATE-UUM            PICTURE S9(4)V99    COMP-3.  34491097
021400      05 XBRT-HI-UPD                 PICTURE X.                   CPWSXBRT
021500      05 XBRT-HI-DATE                PICTURE X(6).                CPWSXBRT
025820      05 FILLER                      PICTURE X(105).              34491097
021700*                                                                 CPWSXBRT
021800     03  FILLER       REDEFINES  XBRT-ADD-BENEFITS-INFO.          CPWSXBRT
021900      05 FILLER                      OCCURS 14.                   CPWSXBRT
022000         07  XBRT-HI-CODE            PICTURE X(3).                  14.1
026310          07 XBRT-HI-RATE            PICTURE S9(4)V99 COMP-3.     34491097
026410      05 FILLER                      PICTURE X(87).               34491097
022400*                                                                 CPWSXBRT
026810      05 XBRT-HI-UC-SINGLE           PIC S9(4)V99 COMP-3.         34491097
026820      05 XBRT-HI-UC-TWO-PARTY        PIC S9(4)V99 COMP-3.         34491097
026830      05 XBRT-HI-UC-FAMILY           PIC S9(4)V99 COMP-3.         34491097
022900      05 XBRT-HI-UC-UPD              PIC X.                       CPWSXBRT
023000      05 XBRT-HI-UC-DATE             PIC X(6).                    CPWSXBRT
023200      05 XBRT-HI-EFFECT-DATE         PICTURE X(6).                21450087
023300*                                                                 CPWSXBRT
023400**              DENTAL   INSURANCE   SEGMENT                    * 73260011
023500     03  XBRT-DI-BENEFITS  REDEFINES XBRT-ADD-BENEFITS-INFO.      73260011
023600      05 XBRT-DI-COV-CD-U            PICTURE X(3).                73260011
023700         88  COV-CD-U-DI             VALUE 'U  '.                 73260011
023800      05 XBRT-DI-RATE-U              PICTURE S9(3)V99    COMP-3.  73260011
023900      05 XBRT-DI-COV-CD-UU           PICTURE X(3).                73260011
024000         88  COV-CD-UU-DI            VALUE 'UU '.                 73260011
024100      05 XBRT-DI-RATE-UU             PICTURE S9(3)V99    COMP-3.  73260011
024200      05 XBRT-DI-COV-CD-UUU          PICTURE X(3).                73260011
024300         88  COV-CD-UUU-DI           VALUE 'UUU'.                 73260011
024400      05 XBRT-DI-RATE-UUU            PICTURE S9(3)V99    COMP-3.  73260011
024500      05 XBRT-DI-UPD                 PICTURE X.                   73260011
024600      05 XBRT-DI-DATE                PICTURE X(6).                73260011
024700      05 FILLER                      PICTURE X(185).              73260011
024800*                                                                 73260011
024900     03  FILLER       REDEFINES  XBRT-ADD-BENEFITS-INFO.          73260011
025000      05 FILLER                      OCCURS 3.                    73260011
025100         07  XBRT-DI-CODE            PICTURE X(3).                73260011
025200          07 XBRT-DI-RATE            PICTURE S9(3)V99 COMP-3.     73260011
025400     05 FILLER                       PICTURE X(170).              21450087
025500*                                                                 73260011
025700      05 XBRT-DI-UC-SINGLE           PIC S9(3)V99 COMP-3.         73260011
025800      05 XBRT-DI-UC-TWO-PARTY        PIC S9(3)V99 COMP-3.         73260011
025900      05 XBRT-DI-UC-FAMILY           PIC S9(3)V99 COMP-3.         73260011
026000      05 XBRT-DI-UC-UPD              PIC X.                       73260011
026100      05 XBRT-DI-UC-DATE             PIC X(6).                    73260011
026300      05 XBRT-DI-EFFECT-DATE         PICTURE X(6).                21450087
026400*                                                                 14120250
026500**                 VISION    CARE    SEGMENT                    * 14120250
026600     03  XBRT-VI-BENEFITS  REDEFINES XBRT-ADD-BENEFITS-INFO.      14120250
026700      05 XBRT-VI-COV-CD-U            PICTURE X(3).                14120250
026800         88  COV-CD-U-VI             VALUE 'U  '.                 14120250
026900      05 XBRT-VI-RATE-U              PICTURE S9(3)V99    COMP-3.  14120250
027000      05 XBRT-VI-COV-CD-UU           PICTURE X(3).                14120250
027100         88  COV-CD-UU-VI            VALUE 'UU '.                 14120250
027200      05 XBRT-VI-RATE-UU             PICTURE S9(3)V99    COMP-3.  14120250
027300      05 XBRT-VI-COV-CD-UUU          PICTURE X(3).                14120250
027400         88  COV-CD-UUU-VI           VALUE 'UUU'.                 14120250
027500      05 XBRT-VI-RATE-UUU            PICTURE S9(3)V99    COMP-3.  14120250
027600      05 XBRT-VI-UPD                 PICTURE X.                   14120250
027700      05 XBRT-VI-DATE                PICTURE X(6).                14120250
027800      05 FILLER                      PICTURE X(185).              14120250
027900*                                                                 14120250
028000     03  FILLER       REDEFINES  XBRT-ADD-BENEFITS-INFO.          14120250
028100      05 FILLER                      OCCURS 3.                    14120250
028200         07  XBRT-VI-CODE            PICTURE X(3).                14120250
028300          07 XBRT-VI-RATE            PICTURE S9(3)V99 COMP-3.     14120250
028400      05 FILLER                       PICTURE X(170).             14120250
028500*                                                                 14120250
028600      05 XBRT-VI-UC-SINGLE           PIC S9(3)V99 COMP-3.         14120250
028700      05 XBRT-VI-UC-TWO-PARTY        PIC S9(3)V99 COMP-3.         14120250
028800      05 XBRT-VI-UC-FAMILY           PIC S9(3)V99 COMP-3.         14120250
028900      05 XBRT-VI-UC-UPD              PIC X.                       14120250
029000      05 XBRT-VI-UC-DATE             PIC X(6).                    14120250
029100      05 XBRT-VI-EFFECT-DATE         PICTURE X(6).                14120250
029200*                                                                 14120250
029300**                 LEGAL PLAN SEGMENT                           * 14920327
029400     03  XBRT-JD-BENEFITS  REDEFINES XBRT-ADD-BENEFITS-INFO.      14920327
029500      05 XBRT-JD-COV-CD-U            PICTURE X(3).                14920327
029600         88  COV-CD-U-JD             VALUE 'U  '.                 14920327
029700      05 XBRT-JD-RATE-U              PICTURE S9(3)V99    COMP-3.  14920327
030100      05 XBRT-JD-COV-CD-UUU          PICTURE X(3).                14920327
030200         88  COV-CD-UUU-JD           VALUE 'UUU'.                 14920327
030300      05 XBRT-JD-RATE-UUU            PICTURE S9(3)V99    COMP-3.  14920327
030400      05 XBRT-JD-UPD                 PICTURE X.                   14920327
030500      05 XBRT-JD-DATE                PICTURE X(6).                14920327
034210      05 FILLER                      PICTURE X(191).              12570722
030700*                                                                 14920327
030800     03  FILLER       REDEFINES  XBRT-ADD-BENEFITS-INFO.          14920327
034510      05 FILLER                      OCCURS 2.                    12570722
031000         07  XBRT-JD-CODE            PICTURE X(3).                14920327
031100          07 XBRT-JD-RATE            PICTURE S9(3)V99 COMP-3.     14920327
034810      05 FILLER                       PICTURE X(176).             12570722
031300*                                                                 14920327
031400      05 XBRT-JD-UC-SINGLE           PIC S9(3)V99 COMP-3.         14920327
035110      05 FILLER                      PIC S9(3)V99 COMP-3.         12570722
031600      05 XBRT-JD-UC-FAMILY           PIC S9(3)V99 COMP-3.         14920327
031700      05 XBRT-JD-UC-UPD              PIC X.                       14920327
031800      05 XBRT-JD-UC-DATE             PIC X(6).                    14920327
031900      05 XBRT-JD-EFFECT-DATE         PICTURE X(6).                14920327
039401*                                                                 02040641
039402*                                                                 02040641
039403*            EMPLOYEE PAID DISABILITY  SEGMENT                    02040641
039404*---------------------------------------------------------------- 02040641
039405     03  XBRT-EPD-BENEFITS REDEFINES XBRT-ADD-BENEFITS-INFO.      02040641
039406      05 XBRT-EPD-MIN-MTHLY-SAL      PICTURE S9(5)   COMP-3.      02040641
039407      05 XBRT-EPD-MAX-MTHLY-SAL      PICTURE S9(5)   COMP-3.      02040641
039408      05 XBRT-EPD-WAIT-07            PICTURE S9(3)   COMP-3.      02040641
039409         88  WAIT-DAYS-07            VALUE  +007.                 02040641
039410      05 XBRT-EPD-WAIT-30            PICTURE S9(3)   COMP-3.      02040641
039411         88  WAIT-DAYS-30            VALUE  +030.                 02040641
040200      05 XBRT-EPD-WAIT-90            PICTURE S9(3)   COMP-3.      34771097
040300         88  WAIT-DAYS-90            VALUE  +090.                 34771097
039412      05 XBRT-EPD-WAIT-180           PICTURE S9(3)   COMP-3.      02040641
039413         88  WAIT-DAYS-180           VALUE  +180.                 02040641
039414      05 XBRT-EPD-AGE-INFO           OCCURS 9.                    02040641
039415          07 XBRT-EPD-MIN-AGE        PICTURE 9(2).                02040641
039416          07 XBRT-EPD-MAX-AGE        PICTURE 9(2).                02040641
039417          07 XBRT-EPD-RATE-07        PICTURE S9V9(4) COMP-3.      02040641
039418          07 XBRT-EPD-RATE-30        PICTURE S9V9(4) COMP-3.      02040641
041100          07 XBRT-EPD-RATE-90        PICTURE S9V9(4) COMP-3.      34771097
039419          07 XBRT-EPD-RATE-180       PICTURE S9V9(4) COMP-3.      02040641
039420      05 FILLER                      PICTURE X(10).               02040641
039421      05 XBRT-EPD-UPD                PICTURE X.                   02040641
039422      05 XBRT-EPD-DATE               PICTURE X(06).               02040641
039423      05 XBRT-EPD-EFFECT-DATE        PICTURE X(6).                02040641
041700      05 FILLER                      PICTURE X(29).               34771097
039425*                                                                 02040641
039426     03  FILLER              REDEFINES   XBRT-ADD-BENEFITS-INFO.  02040641
039427      05 FILLER                          PIC X(6).                02040641
042300       05  XBRT-EPD-WAIT-PER OCCURS 4    PIC S9(3)   COMP-3.      34771097
039429      05 FILLER              OCCURS 9.                            02040641
039430         07  FILLER                      PIC X(4).                02040641
042700         07  FILLER          OCCURS 4.                            34771097
039432             09  XBRT-EPD-RATE           PIC S9V9(4) COMP-3.      02040641
042900      05 FILLER                          PIC X(52).               34771097
037500*                                                                 21450087
037600*---------------------------------------------------------------- 21450087
037700*            RETIREMENT RATES                                     21450087
037800*---------------------------------------------------------------- 21450087
037900     03  FILLER              REDEFINES   XBRT-ADD-BENEFITS-INFO.  21450087
038000         05  FILLER                      OCCURS 11.               21450087
038100             10  XBRT-RETIRE-DESCRIP     PIC  X(12).              21450087
038200             10  XBRT-RETIRE-RATE        PIC S9(05)V9(04) COMP-3. 21450087
038300         05  FILLER                      PIC  X(10).              21450087
038400         05  XBRT-RTR-UPD                PIC  X(01).              21450087
038500         05  XBRT-RTR-DATE               PIC  X(06).              21450087
038600         05  XBRT-RTR-EFFECT-DATE        PIC  X(06).              21450087
042300*                                                                 14420298
042400*---------------------------------------------------------------- 14420298
042500*            GROSS TO NET SEGMENT                                 14420298
042600*---------------------------------------------------------------- 14420298
042700     03  XBRT-GTN-SEGMENT    REDEFINES   XBRT-ADD-BENEFITS-INFO.  14420298
042800         05  XBRT-GTN-RATE-AMOUNT        PIC  9(5)V9(4).          14420298
042900         05  XBRT-GTN-MONTHLY-CAP        PIC  9(5)V9(4).          14420298
046310         05  XBRT-GTN-MONTHLY-CAP2       PIC  9(5)V9(4).          32131177
046311         05  XBRT-GTN-MONTHLY-CAP2-X     REDEFINES                32131177
046312             XBRT-GTN-MONTHLY-CAP2       PIC  X(9).               32131177
046320         05  XBRT-GTN-CAP-GROSS          PIC  9(5)V9(4).          32131177
046330         05  XBRT-GTN-CAP-GROSS-X        REDEFINES                32131177
046340             XBRT-GTN-CAP-GROSS          PIC  X(9).               32131177
047100         05  XBRT-GTN-THRESHOLD-PCT      PIC  9(5)V9(4).          71641280
047200         05  XBRT-GTN-THRESHOLD-PCT-X    REDEFINES                71641280
047300             XBRT-GTN-THRESHOLD-PCT      PIC  X(9).               71641280
047400         05  XBRT-GTN-DEDUCTION-PCT      PIC  9(5)V9(4).          71641280
047500         05  XBRT-GTN-DEDUCTION-PCT-X    REDEFINES                71641280
047600             XBRT-GTN-DEDUCTION-PCT      PIC  X(9).               71641280
047610         05  XBRT-GTN-REDUCED-DED-AMT    PIC  9(5)V9(4).          48711432
047620         05  XBRT-GTN-REDUCED-DED-AMT-X  REDEFINES                48711432
047630             XBRT-GTN-REDUCED-DED-AMT    PIC  X(9).               48711432
047700         05  FILLER                      PIC  X(147).             48711432
047800*****    05  FILLER                      PIC  X(156).             48711432
047800*****    05  FILLER                      PIC  X(174).             71641280
047900*****                                                          CD 71641280
