000000**************************************************************/   02040675
000001*  COPYMEMBER: CPWSRCPR                                      */   02040675
000002*  RELEASE: ___0675______ SERVICE REQUEST(S): _____10204___  */   02040675
000003*  NAME:_____J. QUAN_____ MODIFICATION DATE:  ___05/11/92__  */   02040675
000004*  DESCRIPTION:                                              */   02040675
000006*  - REMOVED (COMMENT) STD AND LTD FIELDS                    */   02040675
000007**************************************************************/   02040675
000100**************************************************************/   36220651
000200*  COPYMEMBER: CPWSRCPR                                      */   36220651
000300*  RELEASE: __0651_______ SERVICE REQUEST(S): _____3622____  */   36220651
000400*  NAME:____PXP__________ MODIFICATION DATE:  ___04/13/92__  */   36220651
000500*  DESCRIPTION:                                              */   36220651
000600*   - CHANGED COVERAGE EFFECTIVE DATES TO REFLECT ADDITIONS  */   36220651
000700*     OF COVERAGE EFFECTIVE DATE COLUMNS TO BENEFITS TABLE.  */   36220651
000800**************************************************************/   36220651
000000**************************************************************/   02040641
000001*  COPYMEMBER: CPWSRCPR                                      */   02040641
000002*  RELEASE: ___0641______ SERVICE REQUEST(S): ____10204____  */   02040641
000003*  NAME:_____J. QUAN_____ MODIFICATION DATE:  ___02/05/92__  */   02040641
000004*  DESCRIPTION:                                              */   02040641
000005*  - ADD EPD-DEENROLL, EPD-WAIT-PERIOD, EPD-SALARY-BASE,     */   02040641
000006*    AND EPD-COVRGE-DATE                                     */   02040641
000007**************************************************************/   02040641
000000**************************************************************/   45340564
000001*  COPYMEMBER: CPWSRCPR                                      */   45340564
000002*  RELEASE: ___0564______ SERVICE REQUEST(S): _____4534____  */   45340564
000003*  NAME:___M. BAPTISTA___ MODIFICATION DATE:  ___02/15/91__  */   45340564
000004*  DESCRIPTION:                                              */   45340564
000005*  - REMOVED ALL DENTAL AND VISION ALTERNATIVE FIELDS.       */   45340564
000006*                                                            */   45340564
000007**************************************************************/   45340564
000100**************************************************************/   36030532
000200*  COPYMEMBER: CPWSRCPR                                      */   36030532
000300*  RELEASE # ____0532____ SERVICE REQUEST NO(S)___3603_______*/   36030532
000400*  NAME __SRS___          MODIFICATION DATE ____05/30/90_____*/   36030532
000500*  DESCRIPTION                                               */   36030532
000600*   NEW COPYLIB FOR RUSH CHECK PAYROLL AUDIT RECORD FORMAT   */   36030532
000700**************************************************************/   36030532
000800*    COPYID=CPWSRCPR                                              CPWSRCPR
000900**************************************************************/   CPWSRCPR
001000     SKIP1                                                        CPWSRCPR
001100*01  RCPR-PAYROLL-AUDIT-RECORD.                                   CPWSRCPR
001200     SKIP1                                                        CPWSRCPR
001300   02  RCPR-FIXED-DATA.                                           CPWSRCPR
001400     03  RCPR-KEY.                                                CPWSRCPR
001500         05  RCPR-TRANS-ID                      PIC X(04).        CPWSRCPR
001600         05  RCPR-ID-NO                         PIC X(9).         CPWSRCPR
001700         05  RCPR-CHECK-DATE.                                     CPWSRCPR
001800             07  RCPR-CHECK-YR                  PIC 99.           CPWSRCPR
001900             07  RCPR-CHECK-MO                  PIC 99.           CPWSRCPR
002000             07  RCPR-CHECK-DA                  PIC 99.           CPWSRCPR
002100         05  RCPR-CHECK-NO                      PIC 9(6).         CPWSRCPR
002200     SKIP1                                                        CPWSRCPR
002300     03  RCPR-VARIABLE-LNGH-IND COMP.                             CPWSRCPR
002400         05  RCPR-NO-ADJS                       PIC S9(4).        CPWSRCPR
002500         05  RCPR-NO-ACCTS                      PIC S9(4).        CPWSRCPR
002600         05  RCPR-NO-DED-REF                    PIC S9(4).        CPWSRCPR
002700         05  RCPR-NO-WORK-FIL                   PIC S9(4).        CPWSRCPR
002800     SKIP1                                                        CPWSRCPR
002900     03  RCPR-FIXED-AREA.                                         CPWSRCPR
003000         05  RCPR-PAY-END-DATE.                                   CPWSRCPR
003100             07  RCPR-PAY-END-YR                PIC 99.           CPWSRCPR
003200             07  RCPR-PAY-END-MO                PIC 99.           CPWSRCPR
003300             07  RCPR-PAY-END-DA                PIC 99.           CPWSRCPR
003400         05  RCPR-NAME.                                           CPWSRCPR
003500             07  RCPR-NAME-26                   PIC X(26).        CPWSRCPR
003600             07  RCPR-NAME-SUFX                 PIC X(4).         CPWSRCPR
003700         05 RCPR-EIN-EDB-FLAG                   PIC X(01).        CPWSRCPR
003800             88 RCPR-EIN-ON-EDB-YES                VALUE ' ' 'Y'. CPWSRCPR
003900             88 RCPR-EIN-ON-EDB-NO                 VALUE 'N'.     CPWSRCPR
004000         05 RCPR-PRINT-ADVICE-FLAG              PIC X(01).        CPWSRCPR
004100             88 RCPR-PRINT-ADVICE-YES              VALUE ' ' 'Y'. CPWSRCPR
004200             88 RCPR-PRINT-ADVICE-NO               VALUE 'N'.     CPWSRCPR
004300         05  RCPR-OVERRIDE-GROSSES      COMP-3.                   CPWSRCPR
004400             10 RCPR-FICA-YTD-GRS-OVERRIDE      PIC S9(7)V99.     CPWSRCPR
004500             10 RCPR-FICA-YTD-DED-OVERRIDE      PIC S9(7)V99.     CPWSRCPR
004600             10 RCPR-MED-YTD-GRS-OVERRIDE       PIC S9(7)V99.     CPWSRCPR
004700             10 RCPR-MED-YTD-DED-OVERRIDE       PIC S9(7)V99.     CPWSRCPR
004800         05  RCPR-EMPL-STATUS                   PIC X.            CPWSRCPR
004900             88  RCPR-ACTIVE-STATUS                  VALUE 'A'.   CPWSRCPR
005000             88  RCPR-LV-WO-PAY-STATUS               VALUE 'N'.   CPWSRCPR
005100             88  RCPR-LV-WTH-PAY-STATUS              VALUE 'P'.   CPWSRCPR
005200             88  RCPR-SEPARATED-STATUS               VALUE 'S'.   CPWSRCPR
005300             88  RCPR-INACTIVE-STATUS                VALUE 'I'.   CPWSRCPR
005400     SKIP1                                                        CPWSRCPR
005500         05  RCPR-STATUS-EFF-DATE.                                CPWSRCPR
005600             07  RCPR-STATUS-YR                 PIC 99.           CPWSRCPR
005700             07  RCPR-STATUS-MO                 PIC 99.           CPWSRCPR
005800             07  RCPR-STATUS-DA                 PIC 99.           CPWSRCPR
005900     SKIP1                                                        CPWSRCPR
006000         05  RCPR-CAMPUS                        PIC XX.           CPWSRCPR
006100         05  RCPR-DEPT.                                           CPWSRCPR
006200             07  RCPR-DEPT-NR                   PIC X(6).         CPWSRCPR
006300             07  FILLER                         PIC XX.           CPWSRCPR
006400     SKIP1                                                        CPWSRCPR
006500         05  RCPR-AFFECT-QTR                    PIC X.            CPWSRCPR
006600             88  RCPR-PRIOR-YEAR                     VALUE '0'.   CPWSRCPR
006700             88  RCPR-1ST-QTR                        VALUE '1'.   CPWSRCPR
006800             88  RCPR-2ND-QTR                        VALUE '2'.   CPWSRCPR
006900             88  RCPR-3RD-QTR                        VALUE '3'.   CPWSRCPR
007000             88  RCPR-4TH-QTR                        VALUE '4'.   CPWSRCPR
007100     SKIP1                                                        CPWSRCPR
007200         05  RCPR-AFFECT-YEAR                   PIC X.            CPWSRCPR
007300             88  RCPR-CURRENT-YEAR                   VALUE 'Y'.   CPWSRCPR
007400             88  RCPR-NO-YTD-BALANCE-AFFECTED        VALUE 'N'.   CPWSRCPR
007500     SKIP1                                                        CPWSRCPR
007600     SKIP1                                                        CPWSRCPR
007700         05  RCPR-GRS-OVERRIDE                  PIC X.            CPWSRCPR
007800             88  RCPR-OVERRIDE-CALC-GRS              VALUE 'Y'.   CPWSRCPR
007900     SKIP1                                                        CPWSRCPR
008000         05  RCPR-GROSSES                                COMP-3.  CPWSRCPR
008100             07  RCPR-TOTAL-GROSS               PIC S9(7)V99.     CPWSRCPR
008200             07  RCPR-FWT-GROSS                 PIC S9(7)V99.     CPWSRCPR
008300             07  RCPR-FICA-GROSS                PIC S9(7)V99.     CPWSRCPR
008400             07  RCPR-MEDICR-GROSS              PIC S9(7)V99.     CPWSRCPR
008500             07  RCPR-STATE-GROSS               PIC S9(7)V99.     CPWSRCPR
008600             07  RCPR-RETR-GROSS                PIC S9(7)V99.     CPWSRCPR
008700             07  RCPR-FILLER-GROSS-2            PIC S9(7)V99.     CPWSRCPR
008800             07  RCPR-WKR-COMP-GROSS            PIC S9(7)V99.     CPWSRCPR
008900             07  RCPR-UI-GROSS                  PIC S9(7)V99.     CPWSRCPR
009000     SKIP1                                                        CPWSRCPR
009100         05  RCPR-GROSS-ARRAY    REDEFINES   RCPR-GROSSES.        CPWSRCPR
009200             07  RCPR-GRS    OCCURS  9   TIMES.                   CPWSRCPR
009300                 09  RCPR-GROSS          COMP-3 PIC S9(7)V99.     CPWSRCPR
009400     SKIP1                                                        CPWSRCPR
009500         05  RCPR-NET-PAY                COMP-3 PIC S9(7)V99.     CPWSRCPR
009600         05  RCPR-FICA-ELIG-GROSS        COMP-3 PIC S9(7)V99.     CPWSRCPR
009700     SKIP1                                                        CPWSRCPR
009800         05  RCPR-FILLER-1                      PIC X.            CPWSRCPR
009900     SKIP1                                                        CPWSRCPR
010000         05  RCPR-HGH-RETR-ELIG                 PIC X.            CPWSRCPR
010100             88  RCPR-HGH-NOT-ELIG                   VALUE '0'.   CPWSRCPR
010200             88  RCPR-HGH-ASSOC                      VALUE '1'.   CPWSRCPR
010300             88  RCPR-HGH-SAFETY                     VALUE '2'.   CPWSRCPR
010400             88  RCPR-HGH-REGENTS-3                  VALUE '3'.   CPWSRCPR
010500             88  RCPR-HGH-REGENTS-4                  VALUE '4'.   CPWSRCPR
010600             88  RCPR-HGH-REGENTS-5                  VALUE '5'.   CPWSRCPR
010700     SKIP1                                                        CPWSRCPR
010800         05  RCPR-FICA-ELG                      PIC X.            CPWSRCPR
010900             88  RCPR-NOT-ELIG-FICA                  VALUE 'N'.   CPWSRCPR
011000             88  RCPR-ELIG-FICA                      VALUE 'E'.   CPWSRCPR
011100             88  RCPR-ELIG-MED-FICA                  VALUE 'M'.   CPWSRCPR
011200     SKIP1                                                        CPWSRCPR
011300         05  RCPR-STUDENT-STAT                  PIC X.            CPWSRCPR
011400             88  RCPR-NOT-STUDENT                   VALUE '1' '5'.CPWSRCPR
011500             88  RCPR-DEGREE-CANDIDATE               VALUE '2'.   CPWSRCPR
011600             88  RCPR-UNDR-GRAD-STUDENT              VALUE '3'.   CPWSRCPR
011700             88  RCPR-GRADUATE                       VALUE '4'.   CPWSRCPR
011800     SKIP1                                                        CPWSRCPR
011900         05  RCPR-FILLER-2                      PIC X.            CPWSRCPR
012000         05  RCPR-FICA-AT-MAX-IND               PIC X.            CPWSRCPR
012100             88  RCPR-FICA-AT-MAX                    VALUE 'Y'.   CPWSRCPR
012200     SKIP1                                                        CPWSRCPR
012300         05  RCPR-LAST-PAY-DATE.                                  CPWSRCPR
012400             07  RCPR-LAST-PAY-YR               PIC 99.           CPWSRCPR
012500             07  RCPR-LAST-PAY-MO               PIC 99.           CPWSRCPR
012600             07  RCPR-LAST-PAY-DA               PIC 99.           CPWSRCPR
012700     SKIP1                                                        CPWSRCPR
012800         05  RCPR-LAST-PAY-PERIOD               PIC XX.           CPWSRCPR
012900             88  RCPR-LAST-BI-WEEKLY-1               VALUE 'B1'.  CPWSRCPR
013000             88  RCPR-LAST-BI-WEEKLY-2               VALUE 'B2'.  CPWSRCPR
013100             88  RCPR-LAST-SEMI-MONTHLY              VALUE 'SM'.  CPWSRCPR
013200             88  RCPR-LAST-MONTHLY-CURRENT           VALUE 'MO'.  CPWSRCPR
013300             88  RCPR-LAST-MONTHLY-ARREARS           VALUE 'MA'.  CPWSRCPR
013400             88  RCPR-LAST-SPECIAL                   VALUE 'XX'.  CPWSRCPR
013500     SKIP1                                                        CPWSRCPR
013600         05  RCPR-FED-TX-MARITAL-STATUS         PIC X.            CPWSRCPR
013700         05  RCPR-FED-TX-EXEMPT                 PIC S9(3).        CPWSRCPR
013800         05  RCPR-ST-TX-MARITAL-STATUS          PIC X.            CPWSRCPR
013900         05  RCPR-ST-TX-PER-DED                 PIC S9(3).        CPWSRCPR
014000         05  RCPR-ST-TX-ITM-DED                 PIC S9(3).        CPWSRCPR
014100     SKIP1                                                        CPWSRCPR
014200         05  RCPR-PRIOR-EMPLOYEE-ID             PIC X(9).         CPWSRCPR
014300         05  RCPR-CBUC                          PIC X(2).         CPWSRCPR
014400         05  RCPR-EMP-UNIT-CODE                 PIC X(02).        CPWSRCPR
014500         05  RCPR-EMP-SPCL-HNDLG-CODE           PIC X(01).        CPWSRCPR
014600         05  RCPR-EMP-REL-CODE                  PIC X(1).         CPWSRCPR
014700         05  RCPR-GTN-PROCESS-SW                PIC X.            CPWSRCPR
014800     SKIP1                                                        CPWSRCPR
014900         05  RCPR-SS-NUMBER                     PIC X(9).         CPWSRCPR
015000         05  RCPR-REG-HRS                COMP-3 PIC S9(3)V99.     CPWSRCPR
015100         05  RCPR-OT-HRS                 COMP-3 PIC S9(3)V99.     CPWSRCPR
015200         05  RCPR-NON-WORKED-HRS         COMP-3 PIC S9(3)V99.     CPWSRCPR
015300         05  RCPR-EMP-DIST-UNIT-CODE            PIC X.            CPWSRCPR
015400         05  RCPR-EMP-COVERAGE-IND              PIC X.            CPWSRCPR
015500         05  RCPR-RTR-GRS-OVR-FICA       COMP-3 PIC S9(5)V99.     CPWSRCPR
015600         05  RCPR-MGE-FLEX-GROSS         COMP-3 PIC S9(7)V99.     CPWSRCPR
015700         05  RCPR-RETIREMENT-RATE        COMP-3 PIC S9(3)V99.     CPWSRCPR
015800         05  RCPR-MGE-BEN-IND                   PIC 9.            CPWSRCPR
015900             88  RCPR-MGE-NOT-ELIG                 VALUE 0.       CPWSRCPR
016000             88  RCPR-MGE-BEN-4                    VALUE 4.       CPWSRCPR
016100             88  RCPR-MGE-BEN-5                    VALUE 5.       CPWSRCPR
016200             88  RCPR-MGE-BEN-6                    VALUE 6.       CPWSRCPR
016300             88  RCPR-MGE-BEN-7                    VALUE 7.       CPWSRCPR
016400             88  RCPR-MGE-BEN-8                    VALUE 8.       CPWSRCPR
016500             88  RCPR-MGE-BEN-9                    VALUE 9.       CPWSRCPR
016600         05  RCPR-PRIMARY-PAY-SCHED             PIC X(2).         CPWSRCPR
016700         05  RCPR-LEAVE-ACCRUAL-CODE            PIC X.            CPWSRCPR
016800         05  RCPR-MEDCR-AT-MAX-IND              PIC X(01).        CPWSRCPW
016810             88  RCPR-MEDCR-AT-MAX                 VALUE 'Y'.     CPWSRCPW
016900         05  RCPR-LIABILITY-ACCT                PIC X(6).         CPWSRCPR
017000         05  RCPR-SUSPENSE-SUPPRESS-FLAG        PIC X.            CPWSRCPR
017100             88 RCPR-SUSPENSE-SUPPRESSED           VALUE 'Y'.     CPWSRCPR
017200         05  RCPR-PCT-DED-SUPPRESS-FLAG         PIC X.            CPWSRCPR
017300             88 RCPR-PCT-DED-SUPPRESSED            VALUE 'Y'.     CPWSRCPR
017400         05  RCPR-PCT-DED-INPUT-FLAG            PIC X.            CPWSRCPR
017500             88 RCPR-PCT-DED-INPUT                 VALUE 'Y'.     CPWSRCPR
017600             88 RCPR-NO-PCT-DED-INPUT              VALUE SPACE.   CPWSRCPR
017700         05  RCPR-VENDOR-DATA                   PIC X(90).        CPWSRCPR
017800         05  RCPR-PAY-ADVICE-MSSG               PIC X(240).       CPWSRCPR
017900         05  RCPR-BEN-AREA.                                       CPWSRCPR
018000             10  RCPR-ADD-COVERAGE              PIC X(1).         CPWSRCPR
018100             10  RCPR-ADD-DEENROLL              PIC X(1).         CPWSRCPR
018200             10  RCPR-DENTAL-DEENROLL           PIC X(1).         CPWSRCPR
018300             10  RCPR-DEP-LIFE-DEENROLL         PIC X(1).         CPWSRCPR
018400             10  RCPR-HLTH-DEENROLL             PIC X(1).         CPWSRCPR
018500             10  RCPR-LEGAL-DEENROLL            PIC X(1).         CPWSRCPR
018600             10  RCPR-LIFE-DEENROLL             PIC X(1).         CPWSRCPR
021200*****        10  RCPR-LTD-DEENROLL              PIC X(1).         02040675
021300*****        10  RCPR-STD-DEENROLL              PIC X(1).         02040675
018900             10  RCPR-VIS-DEENROLL              PIC X(1).         CPWSRCPR
021500*****        10  RCPR-ADD-EARNEFFDATE           PIC X(10).        36220651
021600             10  RCPR-ADD-COVEFFDATE            PIC X(10).        36220651
019100             10  RCPR-ADD-PRINC-SUM             PIC X(3).         CPWSRCPR
019200             10  RCPR-AGE-JAN1          COMP    PIC S9(4).        CPWSRCPR
019300*****        10  RCPR-DENTAL-ALT-CURRMO         PIC X(1).         45340564
019400*****        10  RCPR-DENTAL-ALT-HIST           PIC X(1).         45340564
019500*****        10  RCPR-DENTAL-ALT-MTH1           PIC X(1).         45340564
019600*****        10  RCPR-DENTAL-ALT-MTH2           PIC X(1).         45340564
019700*****        10  RCPR-DENTAL-ALT-MTH3           PIC X(1).         45340564
019800*****        10  RCPR-DENTAL-ALT-MTH4           PIC X(1).         45340564
019900             10  RCPR-DENTAL-COVERAGE           PIC X(3).         CPWSRCPR
022600*****        10  RCPR-DENTAL-EFFDATE            PIC X(10).        36220651
022700             10  RCPR-DENTAL-COVEFFDATE         PIC X(10).        36220651
020100             10  RCPR-DENTAL-PLAN               PIC X(2).         CPWSRCPR
022900*****        10  RCPR-DEP-LIFE-EFFDATE          PIC X(10).        36220651
023000             10  RCPR-DEPLIFE-COVEFFDATE        PIC X(10).        36220651
020300             10  RCPR-DEP-LIFE-IND              PIC X(1).         CPWSRCPR
020400             10  RCPR-HLTH-COVERCODE            PIC X(3).         CPWSRCPR
023300*****        10  RCPR-HLTH-EARNEFFDATE          PIC X(10).        36220651
023400             10  RCPR-HLTH-COVEFFDATE           PIC X(10).        36220651
020600             10  RCPR-HLTH-PLAN                 PIC X(2).         CPWSRCPR
020700             10  RCPR-INS-REDUCT-IND            PIC X(1).         CPWSRCPR
020800             10  RCPR-LEGAL-COVERAGE            PIC X(3).         CPWSRCPR
023800*****        10  RCPR-LEGAL-EARNEFFDATE         PIC X(10).        36220651
023900             10  RCPR-LEGAL-COVEFFDATE          PIC X(10).        36220651
021000             10  RCPR-LEGAL-PLAN                PIC X(2).         CPWSRCPR
024100*****        10  RCPR-LIFE-EFFDATE              PIC X(10).        36220651
024200             10  RCPR-LIFE-COVEFFDATE           PIC X(10).        36220651
021200             10  RCPR-LIFE-SALARY-BASE  COMP    PIC S9(4).        CPWSRCPR
021300             10  RCPR-LIFEINS-PLAN              PIC X(1).         CPWSRCPR
021400             10  RCPR-EXEC-LIFEFLAG             PIC X(1).         CPWSRCPR
021500             10  RCPR-EXEC-LIFESALARY   COMP    PIC S9(4).        CPWSRCPR
024900*****        10  RCPR-LTD-EARNEFFDATE           PIC X(10).        02040675
025000*****        10  RCPR-LTD-SALBASE       COMP-3  PIC S99999V.      02040675
021800             10  RCPR-RET-ELIG-CODE             PIC X(1).         CPWSRCPR
021900             10  RCPR-SEC-HLTH-COVERAGE         PIC X(3).         CPWSRCPR
022000             10  RCPR-SEC-HLTH-DATE             PIC X(10).        CPWSRCPR
022100             10  RCPR-SEC-HLTH-PLAN             PIC X(2).         CPWSRCPR
025500*****        10  RCPR-STD-EARNEFFDATE           PIC X(10).        02040675
025600*****        10  RCPR-STD-SALBASE       COMP-3  PIC S99999V.      02040675
025700*****        10  RCPR-STD-WAITPERIOD            PIC X(3).         02040675
022500*****        10  RCPR-VIS-ALT-CURRMO            PIC X(1).         45340564
022600*****        10  RCPR-VIS-ALT-HIST              PIC X(1).         45340564
022700*****        10  RCPR-VIS-ALT-MTH1              PIC X(1).         45340564
022800*****        10  RCPR-VIS-ALT-MTH2              PIC X(1).         45340564
022900*****        10  RCPR-VIS-ALT-MTH3              PIC X(1).         45340564
023000*****        10  RCPR-VIS-ALT-MTH4              PIC X(1).         45340564
023100             10  RCPR-VIS-COVERAGE              PIC X(3).         CPWSRCPR
026500*****        10  RCPR-VIS-EARNEFFDATE           PIC X(10).        36220651
026600             10  RCPR-VIS-COVEFFDATE            PIC X(10).        36220651
023300             10  RCPR-VIS-PLAN                  PIC X(2).         CPWSRCPR
023400             10  RCPR-DCP-PLAN-CODE             PIC X(1).         CPWSRCPR
018810             10  RCPR-EPD-DEENROLL              PIC X(1).         02040641
022430             10  RCPR-EPD-WAIT-PERIOD           PIC X(3).         02040641
022420             10  RCPR-EPD-SALARY-BASE   COMP-3  PIC S99999V.      02040641
022410             10  RCPR-EPD-COVRGE-DATE           PIC X(10).        02040641
023500         05 RCPR-EDB-PROCESS-YEAR               PIC X(4).         CPWSRCPR
023600         05 RCPR-UCRS-AMOUNT            COMP-3  PIC S9(05)V99.    CPWSRCPR
023700         05 RCPR-UCRS-PERCENT                   PIC 999.          CPWSRCPR
023800         05 RCPR-DEPCARE-AMOUNT         COMP-3  PIC S9(05)V99.    CPWSRCPR
023900         05 RCPR-FIXED-FILLER                   PIC X(80).        CPWSRCPR
024000     SKIP1                                                        CPWSRCPR
024100   02  RCPR-VARIABLE-DATA.                                        CPWSRCPR
024200     03  RCPR-VARIABLE-AREA.                                      CPWSRCPR
024300*                                                                 CPWSRCPR
024400******************************************************************CPWSRCPR
024500*            D O L L A R   A D J U S T M E N T S.                *CPWSRCPR
024600******************************************************************CPWSRCPR
024700     SKIP1                                                        CPWSRCPR
024800         05  RCPR-DLR-ADJS-ARRAY.                                 CPWSRCPR
024900           06  RCPR-ADJ-FLDS OCCURS 0 TO 20 TIMES                 CPWSRCPR
025000                    DEPENDING   ON  RCPR-NO-ADJS.                 CPWSRCPR
025100     SKIP1                                                        CPWSRCPR
025200             07  RCPR-ADJ-CODE                  PIC 9(4).         CPWSRCPR
025300     SKIP1                                                        CPWSRCPR
025400*                                                                *CPWSRCPR
025500*****                                                        *****CPWSRCPR
025600*        CODE:   55XX    FOR DOLLAR BALANCE SEGMENT              *CPWSRCPR
025700*                6XXX    FOR FLOATING SEGMENTS, XXX IS DED NO.   *CPWSRCPR
025800*****                                                        *****CPWSRCPR
025900*                                                                *CPWSRCPR
026000     SKIP1                                                        CPWSRCPR
026100             07  RCPR-ADJ-TYPE                  PIC X.            CPWSRCPR
026200                 88  RCPR-ADJ-NOT-GTN                VALUE ' '.   CPWSRCPR
026300                 88  RCPR-ADJ-EMPLOYMNT-TO-DATE      VALUE 'E'.   CPWSRCPR
026400                 88  RCPR-ADJ-FISCAL-YTD             VALUE 'F'.   CPWSRCPR
026500                 88  RCPR-ADJ-QTD                    VALUE 'Q'.   CPWSRCPR
026600                 88  RCPR-ADJ-SUSP-PREPAID           VALUE 'S'.   CPWSRCPR
026700                 88  RCPR-ADJ-USER-DEF-BAL           VALUE 'U'.   CPWSRCPR
026800                 88  RCPR-ADJ-CALENDAR-YTD           VALUE 'Y'.   CPWSRCPR
026900                 88  RCPR-ADJ-DECLINING-BAL          VALUE 'D'.   CPWSRCPR
027000                 88  RCPR-ADJ-GTN                    VALUE 'G'.   CPWSRCPR
027100     SKIP1                                                        CPWSRCPR
027200******************************************************************CPWSRCPR
027300*        THIS FIELD CONTAINS THE GTN TABLE BALANCE INDICTOR      *CPWSRCPR
027400*        FOR THOSE ADJUSTMENTS TO THE GROSS-TO-NET SEGMENTS.     *CPWSRCPR
027500*        THEIR ASSOCIATED ADJUSTMENT CODE CONTAINS A HIGH-ORDER  *CPWSRCPR
027600*        BLANK.                                                  *CPWSRCPR
027700******************************************************************CPWSRCPR
027800     SKIP1                                                        CPWSRCPR
027900             07  RCPR-ADJ-FILLER                PIC X.            CPWSRCPR
028000             07  RCPR-ADJ-AMT            COMP-3 PIC S9(5)V99.     CPWSRCPR
028100     SKIP1                                                        CPWSRCPR
028200******************************************************************CPWSRCPR
028300*            E A R N I N G   D I S T R I B U T I O N             *CPWSRCPR
028400******************************************************************CPWSRCPR
028500     SKIP1                                                        CPWSRCPR
028600         05  RCPR-EARNGS-DIST-ARRAY.                              CPWSRCPR
028700           06  RCPR-EARNING-DISTRIBUTION OCCURS 0 TO 99 TIMES     CPWSRCPR
028800                    DEPENDING ON RCPR-NO-ACCTS.                   CPWSRCPR
028900*                                                                 CPWSRCPR
029000******************************************************************CPWSRCPR
029100     SKIP1                                                        CPWSRCPR
029200             07  RCPR-DIST-CMP-FLD.                               CPWSRCPR
029300                 09  RCPR-ACCT-DESC.                              CPWSRCPR
029400                     11  RCPR-DIST-NO           PIC XX.           CPWSRCPR
029500                     11  RCPR-ACCT-FUND.                          CPWSRCPR
029600                         13  RCPR-AF-LOC        PIC X.            CPWSRCPR
029700                         13  RCPR-ACCT          PIC 9(6).         CPWSRCPR
029800                         13  RCPR-FUND          PIC 9(5).         CPWSRCPR
029900                         13  RCPR-AF-SUB        PIC 9.            CPWSRCPR
030000                     11  RCPR-TITLE-UNIT-CODE   PIC X(02).        CPWSRCPR
030100                     11  RCPR-EARN-SPCL-HNDLG-CODE PIC X.         CPWSRCPR
030200                     11  RCPR-EARN-COVERAGE-IND PIC X.            CPWSRCPR
030300                     11  RCPR-EARN-DIST-UNIT-CODE  PIC X.         CPWSRCPR
030400                     11  RCPR-EARN-EMP-REL-CODE PIC X.            CPWSRCPR
030500                     11  RCPR-LV-ASSESSMNT-IND  PIC X.            CPWSRCPR
030600                         88  RCPR-ASSESS-LEAVE       VALUE 'Y'.   CPWSRCPR
030700     SKIP1                                                        CPWSRCPR
030800                     11  RCPR-ACC-MGE-B         PIC X.            CPWSRCPR
030900                         88  RCPR-ACC-MGE-ELIG       VALUE 'M'.   CPWSRCPR
031000                     11  RCPR-PAYCY-CODE        PIC X.            CPWSRCPR
031100                         88  RCPR-SEMI-MNTHLY-PAYCY  VALUE 'S'.   CPWSRCPR
031200                         88  RCPR-BI-WKLY-PAYCY      VALUE 'B'.   CPWSRCPR
031300                         88  RCPR-MONTHLY-PAYCY      VALUE 'M'.   CPWSRCPR
031400     SKIP1                                                        CPWSRCPR
031500                     11  RCPR-RETR-ELIG         PIC X.            CPWSRCPR
031600                         88  RCPR-NOT-ELIG           VALUE '0'.   CPWSRCPR
031700                         88  RCPR-ASSOC              VALUE '1'.   CPWSRCPR
031800                         88  RCPR-SAFETY             VALUE '2'.   CPWSRCPR
031900                         88  RCPR-REGENTS-3          VALUE '3'.   CPWSRCPR
032000                         88  RCPR-REGENTS-4          VALUE '4'.   CPWSRCPR
032100                         88  RCPR-REGENTS-5          VALUE '5'.   CPWSRCPR
032200     SKIP1                                                        CPWSRCPR
032300                     11  RCPR-PAYRATE-HR COMP-3 PIC S9(3)V9(4).   CPWSRCPR
032400                     11  RCPR-PAYRATE-SAL   REDEFINES             CPWSRCPR
032500                         RCPR-PAYRATE-HR COMP-3 PIC S9(5)V99.     CPWSRCPR
032600                     11  RCPR-RATE-TYPE         PIC X.            CPWSRCPR
032700                         88  RCPR-RATE-TYP-SAL       VALUE '2'.   CPWSRCPR
032800                         88  RCPR-RATE-HRS           VALUE '4'.   CPWSRCPR
032900     SKIP1                                                        CPWSRCPR
033000                     11  RCPR-EXPS-XFER         PIC X.            CPWSRCPR
033100                     11  RCPR-LV-AC-CODE        PIC X.            CPWSRCPR
033200                         88  RCPR-NO-LV-ACCRUALS     VALUE 'N'.   CPWSRCPR
033300     SKIP1                                                        CPWSRCPR
033400*                                                                *CPWSRCPR
033500******************************************************************CPWSRCPR
033600*    CODED A THRU F, BLANK OR N                                  *CPWSRCPR
033700******************************************************************CPWSRCPR
033800     SKIP1                                                        CPWSRCPR
033900                     11  RCPR-WK-STDY-CD        PIC X.            CPWSRCPR
034000                         88  RCPR-NO-WSP             VALUE ' '.   CPWSRCPR
034100                         88  RCPR-FED-CFY-U          VALUE 'F'.   CPWSRCPR
034200                         88  RCPR-FED-PFY-U          VALUE 'G'    CPWSRCPR
034300                                                           '1'.   CPWSRCPR
034400                         88  RCPR-FED-CFY-G          VALUE 'H'.   CPWSRCPR
034500                         88  RCPR-FED-PFY-G          VALUE 'I'    CPWSRCPR
034600                                                           '2'.   CPWSRCPR
034700                         88  RCPR-PRS-CFY-U          VALUE 'P'.   CPWSRCPR
034800                         88  RCPR-PRS-PFY-U          VALUE 'Q'    CPWSRCPR
034900                                                           '3'.   CPWSRCPR
035000                         88  RCPR-PRS-CFY-G          VALUE 'R'.   CPWSRCPR
035100                         88  RCPR-PRS-PFY-G          VALUE 'S'    CPWSRCPR
035200                                                           '4'.   CPWSRCPR
035300     SKIP1                                                        CPWSRCPR
035400                     11  RCPR-INTRANS-CD       PIC XX.            CPWSRCPR
035500                         88  RCPR-NO-TC              VALUE SPACES.CPWSRCPR
035600                         88  RCPR-ADDTL-PAY          VALUE 'AP'.  CPWSRCPR
035700                         88  RCPR-CANC               VALUE 'C2'.  CPWSRCPR
035800                         88  RCPR-EXP-TRNSFR-1       VALUE 'E1'.  CPWSRCPR
035900                         88  RCPR-EXP-TRNSFR-3       VALUE 'E3'.  CPWSRCPR
036000                         88  RCPR-ONE-TIME-PAYMNT    VALUE 'FT'.  CPWSRCPR
036100                         88  RCPR-HAND-DRAWN         VALUE 'H2'.  CPWSRCPR
036200                         88  RCPR-LATE-TIME-OR-LV    VALUE 'LX'.  CPWSRCPR
036300                         88  RCPR-OVERPAYMNT         VALUE 'O2'.  CPWSRCPR
036400                         88  RCPR-RETRO-ADJ          VALUE 'RA'.  CPWSRCPR
036500                         88  RCPR-REDUCT-IN-PAY      VALUE 'RX'.  CPWSRCPR
036600                         88  RCPR-LIEU-OF-NOTICE     VALUE 'ST'.  CPWSRCPR
036700                         88  RCPR-TIME-EXCEPT        VALUE 'TE'.  CPWSRCPR
036800                         88  RCPR-POSITIVE-TIME      VALUE 'TX'.  CPWSRCPR
036900     SKIP1                                                        CPWSRCPR
037000                 09  RCPR-PERIOD-END-DATE.                        CPWSRCPR
037100                     11  RCPR-PER-END-YR        PIC 99.           CPWSRCPR
037200                     11  RCPR-PER-END-MO        PIC 99.           CPWSRCPR
037300                     11  RCPR-PER-END-DA        PIC 99.           CPWSRCPR
037400     SKIP1                                                        CPWSRCPR
037500                 09  RCPR-TITLE.                                  CPWSRCPR
037600                     11  RCPR-TITLE-CODE.                         CPWSRCPR
037700                         13  FILLER             PIC 9.            CPWSRCPR
037800                         13  RCPR-TTL-CD        PIC 9(4).         CPWSRCPR
037900     SKIP1                                                        CPWSRCPR
038000     SKIP1                                                        CPWSRCPR
038100                 09  RCPR-DOS                   PIC X(3).         CPWSRCPR
038200                 09  RCPR-RATE-ADJ-IND          PIC X.            CPWSRCPR
038300                     88  RCPR-HOURS-NOT-POSTED       VALUE 'A'.   CPWSRCPR
038400     SKIP1                                                        CPWSRCPR
038500             07  RCPR-DIST-VARIABLES         COMP-3.              CPWSRCPR
038600                 09  RCPR-TIME-HRS              PIC S9(3)V99.     CPWSRCPR
038700                 09  RCPR-EARN-AMT              PIC S9(5)V99.     CPWSRCPR
038800                 09  RCPR-EARN-PCT              PIC S9V9(4).      CPWSRCPR
038900             07  RCPR-EARN-FILLER-4005          PIC X(10).        CPWSRCPR
039000     SKIP1                                                        CPWSRCPR
039100             07  RCPR-EARN-FILLER-OP            PIC X(02).        CPWSRCPR
039200             07  RCPR-EARN-FILLER-COS           PIC X(20).        CPWSRCPR
039300             07  RCPR-EARN-PRI-GROSS-NO         PIC X.            CPWSRCPR
039400             07  RCPR-APPT-TYPE                 PIC X(1).         CPWSRCPR
039500             07  RCPR-EARN-FILLER               PIC X(1).         CPWSRCPR
039600     SKIP1                                                        CPWSRCPR
039700******************************************************************CPWSRCPR
039800*            D E D U C T I O N S,   C O N T R I B U T I O N S    *CPWSRCPR
039900******************************************************************CPWSRCPR
040000     SKIP1                                                        CPWSRCPR
040100         05  RCPR-DEDUCTN-ARRAY.                                  CPWSRCPR
040200           06  RCPR-CUR-DED-REFS OCCURS 0 TO 40 TIMES             CPWSRCPR
040300                    DEPENDING ON RCPR-NO-DED-REF.                 CPWSRCPR
040400     SKIP1                                                        CPWSRCPR
040500             07  RCPR-CUR-DED-CODE              PIC 9(3).         CPWSRCPR
040600             07  RCPR-GTN-TYPE                  PIC X.            CPWSRCPR
040700                 88  RCPR-GTN-DEDUCTION              VALUE 'D'.   CPWSRCPR
040800                 88  RCPR-GTN-REDUCTION              VALUE 'R'.   CPWSRCPR
040900                 88  RCPR-GTN-CONTRIBUTION           VALUE 'C'.   CPWSRCPR
041000     SKIP1                                                        CPWSRCPR
041100             07  RCPR-GTN-GROUP                 PIC X.            CPWSRCPR
041200                 88  RCPR-GTN-GRP-TAX                VALUE 'T'.   CPWSRCPR
041300                 88  RCPR-GTN-GRP-RETIREMENT         VALUE 'R'.   CPWSRCPR
041400                 88  RCPR-GTN-GRP-INSURANCE          VALUE 'I'.   CPWSRCPR
041500                 88  RCPR-GTN-GRP-MISC-DED           VALUE 'M'.   CPWSRCPR
041600     SKIP1                                                        CPWSRCPR
041700             07  RCPR-SPEC-TRANS                PIC X.            CPWSRCPR
041800                 88  RCPR-NORMAL-DED-CONTRIB         VALUE ' '.   CPWSRCPR
041900                 88  RCPR-ONE-TIME-DED               VALUE 'O'.   CPWSRCPR
042000*                                                                 CPWSRCPR
042100*                                                                 CPWSRCPR
042200                 88  RCPR-REFUND                     VALUE 'R'.   CPWSRCPR
042300     SKIP1                                                        CPWSRCPR
042400             07  RCPR-SOURCE-CODE               PIC X.            CPWSRCPR
042500                 88  RCPR-NORMAL-SOURCE              VALUE ' '.   CPWSRCPR
042600                 88  RCPR-PREPAYMENT                 VALUE 'A'.   CPWSRCPR
042700                 88  RCPR-DED-FRM-PREPAYMNT          VALUE 'P'.   CPWSRCPR
042800                 88  RCPR-DED-SUSPENDED              VALUE 'S'.   CPWSRCPR
042900                 88  RCPR-SUSP-RECVBLE               VALUE 'R'.   CPWSRCPR
043000                 88  RCPR-DED-NOT-TAKEN              VALUE 'N'.   CPWSRCPR
043100                 88  RCPR-DED-FRM-PREV-SUSP-BAL      VALUE 'D'.   CPWSRCPR
043200                 88  RCPR-DED-FRM-SUSP-RECVBLE       VALUE 'V'.   CPWSRCPR
043300     SKIP1                                                        CPWSRCPR
043400             07  RCPR-DED-QTR-CODE              PIC X.            CPWSRCPR
043500             07  RCPR-DED-YR-CODE               PIC X.            CPWSRCPR
043600             07  RCPR-DED-FILLER                PIC X.            CPWSRCPR
043700             07  RCPR-CUR-AMT            COMP-3 PIC S9(5)V99.     CPWSRCPR
043800             07  RCPR-BRSC                      PIC X(05).        CPWSRCPR
043900     SKIP1                                                        CPWSRCPR
044000         05  RCPR-WORK-FIL-ARRAY.                                 CPWSRCPR
044100           06  RCPR-ADDL-FILLER OCCURS 0 TO 20 TIMES              CPWSRCPR
044200                    DEPENDING   ON  RCPR-NO-WORK-FIL.             CPWSRCPR
044300     SKIP1                                                        CPWSRCPR
044400             07  RCPR-WORK-AREA.                                  CPWSRCPR
044500                 09  RCPR-WK-AMT         COMP-3 PIC S9(7)V99.     CPWSRCPR
044600                 09  RCPR-WK-CHR                PIC X.            CPWSRCPR
044700     SKIP1                                                        CPWSRCPR
044800******************************************************************CPWSRCPR
044900*                                                                *CPWSRCPR
045000*   OCCURS POSITION FOR NUMERIC FIELDS:                          *CPWSRCPR
045100*                                                                *CPWSRCPR
045200*                1       =   ADVANCE DEDUCTION AMT               *CPWSRCPR
045300*                2       =   PRIMARY FWT GROSS                   *CPWSRCPR
045400*                3       =   SECONDARY FWT GROSS                 *CPWSRCPR
045500*                4       =   PRIMARY STATE GROSS                 *CPWSRCPR
045600*                5       =   SECONDARY STATE GROSS               *CPWSRCPR
045700*                6       =   CURRENT MONTH RETIREMENT GROSS      *CPWSRCPR
045800*                7       =   PRIOR MONTH 1 RETIREMENT GROSS      *CPWSRCPR
045900*                8       =   PRIOR MONTH 2 RETIREMENT GROSS      *CPWSRCPR
046000*                9       =   PRIOR MONTH 3 RETIREMENT GROSS      *CPWSRCPR
046100*                10      =   PRIOR MONTH 4 RETIREMENT GROSS      *CPWSRCPR
046200*                11      =   FILLER                              *CPWSRCPR
046300*                12      =   FILLER                              *CPWSRCPR
046400*                13      =   FILLER                              *CPWSRCPR
046500*                14      =   FILLER                              *CPWSRCPR
046600*                15      =   FILLER                              *CPWSRCPR
046700*                16      =   FILLER                              *CPWSRCPR
046800*                17      =   DOS CRITERIA ONLY RETIREMENT GROSS  *CPWSRCPR
046900*                18      =   "C" CODED RETIREMENT GROSS          *CPWSRCPR
047000*                19      =   SPECIAL RETIREMNT "4" SEARLES GROSS *CPWSRCPR
047100*                20      =   NOT USED                            *CPWSRCPR
047200*                                                                *CPWSRCPR
047300*   OCCURS POSITION FOR CHARACTER FIELDS:                        *CPWSRCPR
047400*                                                                *CPWSRCPR
047500*                1       =   SAFETY EARNINGS IND (Y OR N)        *CPWSRCPR
047600*                2       =   CURNT MNTH NORMAL PAY IND (Y OR N)  *CPWSRCPR
047700*                3       =   PRIOR MNTH NORMAL PAY IND (Y OR N)  *CPWSRCPR
047800*                4 THRU                                          *CPWSRCPR
047900*                    20  =   NOT USED                            *CPWSRCPR
048000*                                                                *CPWSRCPR
048100******************************************************************CPWSRCPR
